5.600000000000000000e+01,4.900000000000000000e+01,4.379194444000000175e+01
5.500000000000000000e+01,3.700000000000000000e+01,3.724000000000000199e+01
5.000000000000000000e+01,4.700000000000000000e+01,4.347999999999999687e+01
5.500000000000000000e+01,4.700000000000000000e+01,5.824805555999999740e+01
5.900000000000000000e+01,3.500000000000000000e+01,6.212805555999999996e+01
4.500000000000000000e+01,4.700000000000000000e+01,3.603999999999999915e+01
4.700000000000000000e+01,4.900000000000000000e+01,1.609199999999999875e+02
4.700000000000000000e+01,4.300000000000000000e+01,3.040805556000000109e+01
5.400000000000000000e+01,4.300000000000000000e+01,5.037194444000000004e+01
5.100000000000000000e+01,4.000000000000000000e+01,7.108388888999999722e+01
5.300000000000000000e+01,4.900000000000000000e+01,2.428500000000000014e+01
5.900000000000000000e+01,3.600000000000000000e+01,1.076630555999999928e+02
4.700000000000000000e+01,4.800000000000000000e+01,3.630611111000000335e+01
5.100000000000000000e+01,5.100000000000000000e+01,1.958400000000000034e+02
