1.900000000000000000e+01,1.700000000000000000e+01,1.924580555999999945e+02
1.800000000000000000e+01,1.400000000000000000e+01,2.323899999999999864e+02
1.500000000000000000e+01,1.800000000000000000e+01,1.500300000000000011e+02
1.700000000000000000e+01,1.500000000000000000e+01,2.373805555999999939e+01
1.300000000000000000e+01,1.300000000000000000e+01,4.514119444000000385e+02
1.300000000000000000e+01,6.000000000000000000e+00,3.870888888999999722e+01
1.300000000000000000e+01,1.300000000000000000e+01,2.892938889000000131e+02
2.000000000000000000e+01,1.200000000000000000e+01,3.494399999999999977e+02
1.900000000000000000e+01,1.100000000000000000e+01,1.549519444000000021e+02
1.700000000000000000e+01,1.800000000000000000e+01,5.954194444000000175e+01
1.400000000000000000e+01,1.500000000000000000e+01,5.163888888999999693e+01
1.700000000000000000e+01,7.000000000000000000e+00,9.737000000000000455e+01
1.400000000000000000e+01,9.000000000000000000e+00,1.267488888999999972e+02
1.400000000000000000e+01,1.100000000000000000e+01,8.487999999999999545e+01
1.800000000000000000e+01,1.900000000000000000e+01,1.007569443999999947e+02
1.200000000000000000e+01,1.700000000000000000e+01,5.430611111000000335e+01
1.300000000000000000e+01,8.000000000000000000e+00,6.898499999999999943e+01
1.200000000000000000e+01,9.000000000000000000e+00,5.353388889000000006e+01
1.600000000000000000e+01,6.000000000000000000e+00,3.891805555999999910e+01
1.000000000000000000e+01,1.200000000000000000e+01,1.935999999999999943e+01
1.200000000000000000e+01,7.000000000000000000e+00,3.085611111000000051e+01
