3.200000000000000000e+01,5.300000000000000000e+01,3.417694443999999976e+01
4.300000000000000000e+01,5.600000000000000000e+01,4.890611110999999767e+01
3.900000000000000000e+01,5.400000000000000000e+01,4.496388888999999978e+01
3.700000000000000000e+01,5.300000000000000000e+01,3.545000000000000284e+01
3.100000000000000000e+01,5.000000000000000000e+01,2.939305556000000053e+01
3.500000000000000000e+01,4.800000000000000000e+01,2.953500000000000014e+01
3.600000000000000000e+01,5.200000000000000000e+01,3.671999999999999886e+01
4.300000000000000000e+01,5.500000000000000000e+01,2.526194444000000061e+01
3.300000000000000000e+01,4.900000000000000000e+01,4.738000000000000256e+01
4.100000000000000000e+01,5.600000000000000000e+01,3.970805555999999825e+01
