x1,y1,x2,y2,distance,capacity
54.0,63.0,54.0,63.0,0.0,193.22972222
54.0,63.0,52.0,62.0,2.23606797749979,193.22972222
52.0,62.0,53.0,59.0,3.1622776601683795,193.22972222
53.0,59.0,57.0,60.0,4.123105625617661,193.22972222
57.0,60.0,54.0,63.0,4.242640687119285,193.22972222
47.0,55.0,47.0,55.0,0.0,260.99416667
47.0,55.0,45.0,58.0,3.605551275463989,260.99416667
45.0,58.0,48.0,63.0,5.830951894845301,260.99416667
48.0,63.0,48.0,61.0,2.0,260.99416667
48.0,61.0,48.0,59.0,2.0,260.99416667
48.0,59.0,47.0,55.0,4.123105625617661,260.99416667
51.99999999999998,61.999999999999986,49.70162536093996,61.99930299891068,2.0000000919655583,260.99416667
49.70162536093996,61.99930299891068,48.0,61.99878696696791,2.0000000919655583,260.99416667
18.0,19.0,18.0,19.0,0.0,2075.1227777000004
18.0,19.0,17.0,18.0,1.4142135623730951,2075.1227777000004
17.0,18.0,15.0,18.0,2.0,2075.1227777000004
15.0,18.0,12.0,17.0,3.1622776601683795,2075.1227777000004
12.0,17.0,10.0,12.0,5.385164807134504,2075.1227777000004
10.0,12.0,13.0,13.0,3.1622776601683795,2075.1227777000004
13.0,13.0,13.0,13.0,0.0,2075.1227777000004
13.0,13.0,14.0,15.0,2.23606797749979,2075.1227777000004
14.0,15.0,17.0,15.0,3.0,2075.1227777000004
17.0,15.0,18.0,14.0,1.4142135623730951,2075.1227777000004
18.0,14.0,20.0,12.0,2.8284271247461903,2075.1227777000004
20.0,12.0,19.0,17.0,5.0990195135927845,2075.1227777000004
19.0,17.0,18.0,19.0,2.23606797749979,2075.1227777000004
12.0,9.0,12.0,9.0,0.0,748.48666664
12.0,9.0,13.0,8.0,1.4142135623730951,748.48666664
13.0,8.0,12.0,7.0,1.4142135623730951,748.48666664
12.0,7.0,13.0,6.0,1.4142135623730951,748.48666664
13.0,6.0,16.0,6.0,3.0,748.48666664
16.0,6.0,17.0,7.0,1.4142135623730951,748.48666664
17.0,7.0,19.0,11.0,4.47213595499958,748.48666664
19.0,11.0,14.0,11.0,5.0,748.48666664
14.0,11.0,14.0,9.0,2.0,748.48666664
14.0,9.0,12.0,9.0,2.0,748.48666664
20.000000000000007,11.999999999999961,19.73491848593284,11.734918485932809,0.7071067811865287,2075.1227777000004
19.73491848593284,11.734918485932809,19.000000000000007,11.000000000000014,0.7071067811865287,2075.1227777000004
43.0,55.0,43.0,55.0,0.0,219.55194444
43.0,55.0,43.0,56.0,1.0,219.55194444
43.0,56.0,41.0,56.0,2.0,219.55194444
41.0,56.0,37.0,53.0,5.0,219.55194444
37.0,53.0,39.0,54.0,2.23606797749979,219.55194444
39.0,54.0,43.0,55.0,4.123105625617661,219.55194444
32.0,53.0,32.0,53.0,0.0,211.38194444
32.0,53.0,31.0,50.0,3.1622776601683795,211.38194444
31.0,50.0,33.0,49.0,2.23606797749979,211.38194444
33.0,49.0,35.0,48.0,2.23606797749979,211.38194444
35.0,48.0,36.0,52.0,4.123105625617661,211.38194444
36.0,52.0,32.0,53.0,4.123105625617661,211.38194444
36.9999999999998,52.99999999999985,36.509479412284314,52.50947941228428,0.7071067811863994,219.55194444
36.509479412284314,52.50947941228428,36.00000000000009,51.99999999999998,0.7071067811863994,219.55194444
26.0,32.0,26.0,32.0,0.0,752.99916659
26.0,32.0,28.0,29.0,3.605551275463989,752.99916659
28.0,29.0,31.0,28.0,3.1622776601683795,752.99916659
31.0,28.0,32.0,32.0,4.123105625617661,752.99916659
32.0,32.0,33.0,33.0,1.4142135623730951,752.99916659
33.0,33.0,34.0,34.0,1.4142135623730951,752.99916659
34.0,34.0,29.0,35.0,5.0990195135927845,752.99916659
29.0,35.0,26.0,32.0,4.242640687119285,752.99916659
41.0,32.0,41.0,32.0,0.0,404.37499999
41.0,32.0,42.0,31.0,1.4142135623730951,404.37499999
42.0,31.0,43.0,29.0,2.23606797749979,404.37499999
43.0,29.0,42.0,29.0,1.0,404.37499999
42.0,29.0,36.0,27.0,6.324555320336759,404.37499999
36.0,27.0,36.0,30.0,3.0,404.37499999
36.0,30.0,38.0,30.0,2.0,404.37499999
38.0,30.0,41.0,32.0,3.605551275463989,404.37499999
33.0,33.0,34.048170103497945,31.95182989650207,2.1213203435596415,752.99916659
34.048170103497945,31.95182989650207,36.0,30.000000000000004,2.1213203435596415,752.99916659
2.0,28.0,2.0,28.0,0.0,360.66805555
2.0,28.0,1.0,27.0,1.4142135623730951,360.66805555
1.0,27.0,3.0,26.0,2.23606797749979,360.66805555
3.0,26.0,5.0,22.0,4.47213595499958,360.66805555
5.0,22.0,5.0,26.0,4.0,360.66805555
5.0,26.0,2.0,28.0,3.605551275463989,360.66805555
6.0,21.0,6.0,21.0,0.0,627.7588889199999
6.0,21.0,7.0,22.0,1.4142135623730951,627.7588889199999
7.0,22.0,8.0,23.0,1.4142135623730951,627.7588889199999
8.0,23.0,11.0,22.0,3.1622776601683795,627.7588889199999
11.0,22.0,9.0,21.0,2.23606797749979,627.7588889199999
9.0,21.0,9.0,18.0,3.0,627.7588889199999
9.0,18.0,6.0,21.0,4.242640687119285,627.7588889199999
5.000000000000044,21.999999999999915,5.6351090411204865,21.364890958879453,0.7071067811865017,627.7588889199999
5.6351090411204865,21.364890958879453,5.9999999999999645,20.999999999999964,0.7071067811865017,627.7588889199999
71.0,34.0,71.0,34.0,0.0,440.59083328
71.0,34.0,70.0,29.0,5.0990195135927845,440.59083328
70.0,29.0,64.0,29.0,6.0,440.59083328
64.0,29.0,71.0,34.0,8.602325267042627,440.59083328
73.0,19.0,73.0,19.0,0.0,344.63611112
73.0,19.0,71.0,20.0,2.23606797749979,344.63611112
71.0,20.0,67.0,19.0,4.123105625617661,344.63611112
67.0,19.0,64.0,17.0,3.605551275463989,344.63611112
64.0,17.0,73.0,19.0,9.219544457292887,344.63611112
70.00000000000001,29.0,70.43890000665138,25.049899940137607,4.527692569068708,440.59083328
70.43890000665138,25.049899940137607,71.0,20.0,4.527692569068708,440.59083328
59.0,26.0,59.0,26.0,0.0,772.20055548
59.0,26.0,55.0,23.0,5.0,772.20055548
55.0,23.0,52.0,21.0,3.605551275463989,772.20055548
52.0,21.0,53.0,19.0,2.23606797749979,772.20055548
53.0,19.0,58.0,20.0,5.0990195135927845,772.20055548
58.0,20.0,59.0,26.0,6.082762530298219,772.20055548
49.0,16.0,49.0,16.0,0.0,820.62194449
49.0,16.0,50.0,17.0,1.4142135623730951,820.62194449
50.0,17.0,52.0,17.0,2.0,820.62194449
52.0,17.0,55.0,15.0,3.605551275463989,820.62194449
55.0,15.0,58.0,16.0,3.1622776601683795,820.62194449
58.0,16.0,56.0,14.0,2.8284271247461903,820.62194449
56.0,14.0,54.0,14.0,2.0,820.62194449
54.0,14.0,51.0,13.0,3.1622776601683795,820.62194449
51.0,13.0,49.0,16.0,3.605551275463989,820.62194449
52.99999999999982,18.999999999999964,52.48480013026838,17.969600260536915,1.118033988749836,820.62194449
52.48480013026838,17.969600260536915,52.000000000000014,17.0,1.118033988749836,820.62194449
13.0,35.0,13.0,35.0,0.0,405.61305554
13.0,35.0,15.0,36.0,2.23606797749979,405.61305554
15.0,36.0,11.0,38.0,4.47213595499958,405.61305554
11.0,38.0,7.0,39.0,4.123105625617661,405.61305554
7.0,39.0,8.0,36.0,3.1622776601683795,405.61305554
8.0,36.0,11.0,33.0,4.242640687119285,405.61305554
11.0,33.0,12.0,31.0,2.23606797749979,405.61305554
12.0,31.0,13.0,35.0,4.123105625617661,405.61305554
4.0,36.0,4.0,36.0,0.0,461.31777778
4.0,36.0,3.0,34.0,2.23606797749979,461.31777778
3.0,34.0,5.0,30.0,4.47213595499958,461.31777778
5.0,30.0,8.0,29.0,3.1622776601683795,461.31777778
8.0,29.0,9.0,32.0,3.1622776601683795,461.31777778
9.0,32.0,6.0,38.0,6.708203932499369,461.31777778
6.0,38.0,4.0,36.0,2.8284271247461903,461.31777778
8.0,36.0,7.574310338523673,35.78712422889092,0.4472135962559271,461.31777778
7.574310338523673,35.78712422889092,7.200023257860709,35.599953484278586,0.4472135962559271,461.31777778
70.0,44.0,70.0,44.0,0.0,272.46305555
70.0,44.0,73.0,43.0,3.1622776601683795,272.46305555
73.0,43.0,75.0,43.0,2.0,272.46305555
75.0,43.0,75.0,43.0,0.0,272.46305555
75.0,43.0,76.0,44.0,1.4142135623730951,272.46305555
76.0,44.0,78.0,46.0,2.8284271247461903,272.46305555
78.0,46.0,70.0,44.0,8.246211251235321,272.46305555
76.0,36.0,76.0,36.0,0.0,255.64722223
76.0,36.0,74.0,37.0,2.23606797749979,255.64722223
74.0,37.0,73.0,37.0,1.0,255.64722223
73.0,37.0,72.0,38.0,1.4142135623730951,255.64722223
72.0,38.0,69.0,41.0,4.242640687119285,255.64722223
69.0,41.0,71.0,41.0,2.0,255.64722223
71.0,41.0,72.0,40.0,1.4142135623730951,255.64722223
72.0,40.0,76.0,36.0,5.656854249492381,255.64722223
71.80532025698791,43.398226581004025,71.41548143853137,42.23729487884308,1.2649141720043033,272.46305555
71.41548143853137,42.23729487884308,71.0,41.0,1.2649141720043033,272.46305555
57.0,69.0,57.0,69.0,0.0,913.14666669
57.0,69.0,62.0,65.0,6.4031242374328485,913.14666669
62.0,65.0,67.0,65.0,5.0,913.14666669
67.0,65.0,65.0,57.0,8.246211251235321,913.14666669
65.0,57.0,62.0,60.0,4.242640687119285,913.14666669
62.0,60.0,57.0,69.0,10.295630140987,913.14666669
74.0,58.0,74.0,58.0,0.0,905.0141667099999
74.0,58.0,71.0,57.0,3.1622776601683795,905.0141667099999
71.0,57.0,69.0,56.0,2.23606797749979,905.0141667099999
69.0,56.0,68.0,56.0,1.0,905.0141667099999
68.0,56.0,66.0,55.0,2.23606797749979,905.0141667099999
66.0,55.0,80.0,56.0,14.035668847618199,905.0141667099999
80.0,56.0,74.0,58.0,6.324555320336759,905.0141667099999
65.00000000000011,56.999999999999886,65.4977635366915,56.00447292661369,1.1180339887491895,913.14666669
65.4977635366915,56.00447292661369,65.99999999999672,54.999999999999766,1.1180339887491895,913.14666669
39.0,19.0,39.0,19.0,0.0,748.10611116
39.0,19.0,40.0,20.0,1.4142135623730951,748.10611116
40.0,20.0,40.0,22.0,2.0,748.10611116
40.0,22.0,42.0,25.0,3.605551275463989,748.10611116
42.0,25.0,42.0,22.0,3.0,748.10611116
42.0,22.0,40.0,18.0,4.47213595499958,748.10611116
40.0,18.0,39.0,19.0,1.4142135623730951,748.10611116
45.0,25.0,45.0,25.0,0.0,372.11694444
45.0,25.0,47.0,27.0,2.8284271247461903,372.11694444
47.0,27.0,47.0,26.0,1.0,372.11694444
47.0,26.0,49.0,20.0,6.324555320336759,372.11694444
49.0,20.0,47.0,21.0,2.23606797749979,372.11694444
47.0,21.0,47.0,22.0,1.0,372.11694444
47.0,22.0,45.0,25.0,3.605551275463989,372.11694444
42.000000000000014,25.000000000000014,42.996543347094466,25.00000000000001,1.499999999999993,748.10611116
42.996543347094466,25.00000000000001,45.0,24.999999999999996,1.499999999999993,748.10611116
19.0,8.0,19.0,8.0,0.0,974.0338888
19.0,8.0,21.0,6.0,2.8284271247461903,974.0338888
21.0,6.0,21.0,6.0,0.0,974.0338888
21.0,6.0,26.0,8.0,5.385164807134504,974.0338888
26.0,8.0,30.0,11.0,5.0,974.0338888
30.0,11.0,26.0,10.0,4.123105625617661,974.0338888
26.0,10.0,24.0,10.0,2.0,974.0338888
24.0,10.0,22.0,9.0,2.23606797749979,974.0338888
22.0,9.0,19.0,8.0,3.1622776601683795,974.0338888
34.0,9.0,34.0,9.0,0.0,1272.5752779299999
34.0,9.0,35.0,7.0,2.23606797749979,1272.5752779299999
35.0,7.0,33.0,6.0,2.23606797749979,1272.5752779299999
33.0,6.0,32.0,6.0,1.0,1272.5752779299999
32.0,6.0,30.0,6.0,2.0,1272.5752779299999
30.0,6.0,30.0,5.0,1.0,1272.5752779299999
30.0,5.0,29.0,4.0,1.4142135623730951,1272.5752779299999
29.0,4.0,31.0,1.0,3.605551275463989,1272.5752779299999
31.0,1.0,26.0,2.0,5.0990195135927845,1272.5752779299999
26.0,2.0,28.0,5.0,3.605551275463989,1272.5752779299999
28.0,5.0,28.0,6.0,1.0,1272.5752779299999
28.0,6.0,30.0,9.0,3.605551275463989,1272.5752779299999
30.0,9.0,34.0,9.0,4.0,1272.5752779299999
29.03771152569539,10.278283644271543,29.582792771143804,9.554209253419682,0.8000012785914186,1272.5752779299999
29.582792771143804,9.554209253419682,29.999999999999993,9.0,0.8000012785914186,1272.5752779299999
50.0,10.0,50.0,10.0,0.0,880.43388884
50.0,10.0,50.0,9.0,1.0,880.43388884
50.0,9.0,48.0,9.0,2.0,880.43388884
48.0,9.0,44.0,11.0,4.47213595499958,880.43388884
44.0,11.0,42.0,11.0,2.0,880.43388884
42.0,11.0,44.0,13.0,2.8284271247461903,880.43388884
44.0,13.0,45.0,15.0,2.23606797749979,880.43388884
45.0,15.0,46.0,14.0,1.4142135623730951,880.43388884
46.0,14.0,47.0,11.0,3.1622776601683795,880.43388884
47.0,11.0,50.0,10.0,3.1622776601683795,880.43388884
39.0,14.0,39.0,14.0,0.0,2455.08611111
39.0,14.0,40.0,13.0,1.4142135623730951,2455.08611111
40.0,13.0,40.0,13.0,0.0,2455.08611111
40.0,13.0,41.0,8.0,5.0990195135927845,2455.08611111
41.0,8.0,42.0,7.0,1.4142135623730951,2455.08611111
42.0,7.0,42.0,5.0,2.0,2455.08611111
42.0,5.0,40.0,3.0,2.8284271247461903,2455.08611111
40.0,3.0,38.0,8.0,5.385164807134504,2455.08611111
38.0,8.0,37.0,12.0,4.123105625617661,2455.08611111
37.0,12.0,36.0,12.0,1.0,2455.08611111
36.0,12.0,35.0,13.0,1.4142135623730951,2455.08611111
35.0,13.0,39.0,14.0,4.123105625617661,2455.08611111
42.00000000000254,10.999999999999998,40.867624388819586,10.773534142760095,0.7844645405782565,2455.08611111
40.867624388819586,10.773534142760095,40.461536040850966,10.692319795745167,0.7844645405782565,2455.08611111
62.0,53.0,62.0,53.0,0.0,479.86638889000005
62.0,53.0,62.0,50.0,3.0,479.86638889000005
62.0,50.0,62.0,48.0,2.0,479.86638889000005
62.0,48.0,61.0,49.0,1.4142135623730951,479.86638889000005
61.0,49.0,62.0,53.0,4.123105625617661,479.86638889000005
63.0,44.0,63.0,44.0,0.0,548.7480555
63.0,44.0,63.0,44.0,0.0,548.7480555
63.0,44.0,65.0,45.0,2.23606797749979,548.7480555
65.0,45.0,66.0,46.0,1.4142135623730951,548.7480555
66.0,46.0,63.0,44.0,3.605551275463989,548.7480555
62.0,48.000000000000064,63.147606601687336,46.27548493280527,1.9414513579524502,548.7480555
63.147606601687336,46.27548493280527,64.15115974469803,44.76743982979869,1.9414513579524502,548.7480555
31.0,24.0,31.0,24.0,0.0,1487.4791666
31.0,24.0,30.0,21.0,3.1622776601683795,1487.4791666
30.0,21.0,30.0,17.0,4.0,1487.4791666
30.0,17.0,32.0,18.0,2.23606797749979,1487.4791666
32.0,18.0,35.0,23.0,5.830951894845301,1487.4791666
35.0,23.0,31.0,24.0,4.123105625617661,1487.4791666
25.0,15.0,25.0,15.0,0.0,1939.9599999999998
25.0,15.0,25.0,17.0,2.0,1939.9599999999998
25.0,17.0,26.0,20.0,3.1622776601683795,1939.9599999999998
26.0,20.0,23.0,19.0,3.1622776601683795,1939.9599999999998
23.0,19.0,23.0,14.0,5.0,1939.9599999999998
23.0,14.0,26.0,13.0,3.1622776601683795,1939.9599999999998
26.0,13.0,25.0,15.0,2.23606797749979,1939.9599999999998
30.0,20.003586120789617,27.7359656516676,20.001556345628163,2.000000803766795,1939.9599999999998
27.7359656516676,20.001556345628163,25.999999999998877,19.999999999999623,2.000000803766795,1939.9599999999998
89.0,49.0,89.0,49.0,0.0,345.38333334000004
89.0,49.0,87.0,49.0,2.0,345.38333334000004
87.0,49.0,85.0,48.0,2.23606797749979,345.38333334000004
85.0,48.0,79.0,43.0,7.810249675906654,345.38333334000004
79.0,43.0,79.0,42.0,1.0,345.38333334000004
79.0,42.0,78.0,42.0,1.0,345.38333334000004
78.0,42.0,79.0,40.0,2.23606797749979,345.38333334000004
79.0,40.0,82.0,39.0,3.1622776601683795,345.38333334000004
82.0,39.0,82.0,40.0,1.0,345.38333334000004
82.0,40.0,82.0,41.0,1.0,345.38333334000004
82.0,41.0,89.0,49.0,10.63014581273465,345.38333334000004
79.0,34.0,79.0,34.0,0.0,425.83861110000004
79.0,34.0,80.0,35.0,1.4142135623730951,425.83861110000004
80.0,35.0,78.0,39.0,4.47213595499958,425.83861110000004
78.0,39.0,82.0,38.0,4.123105625617661,425.83861110000004
82.0,38.0,82.0,36.0,2.0,425.83861110000004
82.0,36.0,83.0,37.0,1.4142135623730951,425.83861110000004
83.0,37.0,94.0,37.0,11.0,425.83861110000004
94.0,37.0,83.0,34.0,11.40175425099138,425.83861110000004
83.0,34.0,82.0,33.0,1.4142135623730951,425.83861110000004
82.0,33.0,80.0,30.0,3.605551275463989,425.83861110000004
80.0,30.0,79.0,34.0,4.123105625617661,425.83861110000004
82.0,39.0,81.87253535183088,38.479705251463926,0.48507666512838377,425.83861110000004
81.87253535183088,38.479705251463926,81.76915307525913,38.05771173118521,0.48507666512838377,425.83861110000004
12.0,24.0,12.0,24.0,0.0,1061.02444454
12.0,24.0,15.0,22.0,3.605551275463989,1061.02444454
15.0,22.0,17.0,25.0,3.605551275463989,1061.02444454
17.0,25.0,16.0,26.0,1.4142135623730951,1061.02444454
16.0,26.0,16.0,26.0,0.0,1061.02444454
16.0,26.0,15.0,27.0,1.4142135623730951,1061.02444454
15.0,27.0,13.0,28.0,2.23606797749979,1061.02444454
13.0,28.0,14.0,25.0,3.1622776601683795,1061.02444454
14.0,25.0,12.0,24.0,2.23606797749979,1061.02444454
24.0,29.0,24.0,29.0,0.0,1213.7869445400001
24.0,29.0,23.0,28.0,1.4142135623730951,1213.7869445400001
23.0,28.0,21.0,28.0,2.0,1213.7869445400001
21.0,28.0,21.0,27.0,1.0,1213.7869445400001
21.0,27.0,21.0,25.0,2.0,1213.7869445400001
21.0,25.0,24.0,25.0,3.0,1213.7869445400001
24.0,25.0,26.0,24.0,2.23606797749979,1213.7869445400001
26.0,24.0,26.0,26.0,2.0,1213.7869445400001
26.0,26.0,24.0,26.0,2.0,1213.7869445400001
24.0,26.0,24.0,27.0,1.0,1213.7869445400001
24.0,27.0,24.0,29.0,2.0,1213.7869445400001
17.000000000000007,25.000000000000007,19.13430783820876,25.0,1.9999999999999911,1213.7869445400001
19.13430783820876,25.0,20.99999999999999,25.0,1.9999999999999911,1213.7869445400001
59.0,36.0,59.0,36.0,0.0,466.55805565
59.0,36.0,59.0,35.0,1.0,466.55805565
59.0,35.0,55.0,37.0,4.47213595499958,466.55805565
55.0,37.0,51.0,40.0,5.0,466.55805565
51.0,40.0,47.0,43.0,5.0,466.55805565
47.0,43.0,54.0,43.0,7.0,466.55805565
54.0,43.0,59.0,36.0,8.602325267042627,466.55805565
47.0,48.0,47.0,48.0,0.0,635.2172222199999
47.0,48.0,50.0,47.0,3.1622776601683795,635.2172222199999
50.0,47.0,55.0,47.0,5.0,635.2172222199999
55.0,47.0,56.0,49.0,2.23606797749979,635.2172222199999
56.0,49.0,53.0,49.0,3.0,635.2172222199999
53.0,49.0,51.0,51.0,2.8284271247461903,635.2172222199999
51.0,51.0,47.0,49.0,4.47213595499958,635.2172222199999
47.0,49.0,45.0,47.0,2.8284271247461903,635.2172222199999
45.0,47.0,47.0,48.0,2.23606797749979,635.2172222199999
54.00000000000025,42.99999999999965,54.00411247794596,45.3061589236164,2.000003180009209,635.2172222199999
54.00411247794596,45.3061589236164,54.00713303476831,47.0,2.000003180009209,635.2172222199999
25.0,49.0,25.0,49.0,0.0,771.32916669
25.0,49.0,29.0,45.0,5.656854249492381,771.32916669
29.0,45.0,27.0,44.0,2.23606797749979,771.32916669
27.0,44.0,25.0,45.0,2.23606797749979,771.32916669
25.0,45.0,24.0,44.0,1.4142135623730951,771.32916669
24.0,44.0,21.0,43.0,3.1622776601683795,771.32916669
21.0,43.0,17.0,46.0,5.0,771.32916669
17.0,46.0,19.0,46.0,2.0,771.32916669
19.0,46.0,25.0,49.0,6.708203932499369,771.32916669
21.0,37.0,21.0,37.0,0.0,1072.60444443
21.0,37.0,20.0,38.0,1.4142135623730951,1072.60444443
20.0,38.0,17.0,38.0,3.0,1072.60444443
17.0,38.0,20.0,41.0,4.242640687119285,1072.60444443
20.0,41.0,23.0,40.0,3.1622776601683795,1072.60444443
23.0,40.0,23.0,39.0,1.0,1072.60444443
23.0,39.0,22.0,35.0,4.123105625617661,1072.60444443
22.0,35.0,20.0,34.0,2.23606797749979,1072.60444443
20.0,34.0,21.0,37.0,3.1622776601683795,1072.60444443
21.000000000000004,43.0,20.592374454559682,41.77859003413947,1.1067972528579355,1072.60444443
20.592374454559682,41.77859003413947,20.29924358612186,40.900252137959384,1.1067972528579355,1072.60444443
