2.000000000000000000e+00,2.800000000000000000e+01,3.606388889000000120e+01,0.000000000000000000e+00
1.000000000000000000e+00,2.700000000000000000e+01,3.353999999999999915e+01,0.000000000000000000e+00
3.000000000000000000e+00,2.600000000000000000e+01,5.109611111000000250e+01,0.000000000000000000e+00
5.000000000000000000e+00,2.200000000000000000e+01,1.390061110999999983e+02,0.000000000000000000e+00
5.000000000000000000e+00,2.600000000000000000e+01,6.489805556000000308e+01,0.000000000000000000e+00
2.000000000000000000e+00,2.800000000000000000e+01,3.606388889000000120e+01,0.000000000000000000e+00
6.000000000000000000e+00,2.100000000000000000e+01,8.380805555999999967e+01,1.000000000000000000e+00
7.000000000000000000e+00,2.200000000000000000e+01,1.080238889000000029e+02,1.000000000000000000e+00
8.000000000000000000e+00,2.300000000000000000e+01,7.555805555999999967e+01,1.000000000000000000e+00
1.100000000000000000e+01,2.200000000000000000e+01,6.565000000000000568e+01,1.000000000000000000e+00
9.000000000000000000e+00,2.100000000000000000e+01,5.629694443999999720e+01,1.000000000000000000e+00
9.000000000000000000e+00,1.800000000000000000e+01,1.546138889000000063e+02,1.000000000000000000e+00
6.000000000000000000e+00,2.100000000000000000e+01,8.380805555999999967e+01,1.000000000000000000e+00
