5.400000000000000000e+01,6.300000000000000000e+01,4.514388888999999949e+01,0.000000000000000000e+00
5.200000000000000000e+01,6.200000000000000000e+01,2.898000000000000043e+01,0.000000000000000000e+00
5.300000000000000000e+01,5.900000000000000000e+01,2.622194444000000146e+01,0.000000000000000000e+00
5.700000000000000000e+01,6.000000000000000000e+01,4.774000000000000199e+01,0.000000000000000000e+00
5.400000000000000000e+01,6.300000000000000000e+01,4.514388888999999949e+01,0.000000000000000000e+00
4.700000000000000000e+01,5.500000000000000000e+01,5.317611111000000079e+01,1.000000000000000000e+00
4.500000000000000000e+01,5.800000000000000000e+01,3.354999999999999716e+01,1.000000000000000000e+00
4.800000000000000000e+01,6.300000000000000000e+01,4.694305555999999768e+01,1.000000000000000000e+00
4.800000000000000000e+01,6.100000000000000000e+01,3.328499999999999659e+01,1.000000000000000000e+00
4.800000000000000000e+01,5.900000000000000000e+01,4.086388888999999836e+01,1.000000000000000000e+00
4.700000000000000000e+01,5.500000000000000000e+01,5.317611111000000079e+01,1.000000000000000000e+00
