49.67734338918489,61.999295615584444,415.67583333
13.532383804505928,14.06476760901186,2862.97944434
35.02950795008441,51.41770477005064,437.60805556
34.10642663575749,31.893573364242513,1048.09027774
5.0,22.920884923086106,1088.06694448
70.41921353288465,25.227078204037934,927.0288888
54.72746927055137,21.36182512675158,1484.80444447
9.28098756231295,36.00052447115667,983.03777778
71.7405259637025,42.57779025478179,541.52805556
63.66854497406133,58.33145502593804,1545.0277778999998
42.843467399829954,24.999999999999996,1258.77222231
27.207917381531995,6.792082618468047,2146.57111109
40.91891406523813,10.783791664483829,2946.64611115
63.06535389454042,46.400145081122865,1108.53833328
27.6839531744731,20.001509690900413,3429.8961111
83.20197225053968,41.97907742022921,767.0938888899999
19.437546890448623,25.000000000000004,2314.7944446399997
54.00482151390767,45.7037566708276,1169.0980556
21.337484442717944,43.802075451071104,1767.9586111200001
