3.500000000000000000e+01,7.000000000000000000e+00,9.309305555999999626e+01,0.000000000000000000e+00
3.300000000000000000e+01,6.000000000000000000e+00,1.605880555999999899e+02,0.000000000000000000e+00
3.200000000000000000e+01,6.000000000000000000e+00,2.654305555999999910e+01,0.000000000000000000e+00
3.100000000000000000e+01,1.000000000000000000e+00,4.079999999999999716e+01,0.000000000000000000e+00
2.600000000000000000e+01,2.000000000000000000e+00,4.841111111000000022e+01,0.000000000000000000e+00
2.900000000000000000e+01,4.000000000000000000e+00,1.661850000000000023e+02,0.000000000000000000e+00
2.800000000000000000e+01,5.000000000000000000e+00,3.979805556000000166e+01,0.000000000000000000e+00
2.800000000000000000e+01,6.000000000000000000e+00,4.227499999999999858e+01,0.000000000000000000e+00
3.000000000000000000e+01,5.000000000000000000e+00,2.469999999999999929e+01,0.000000000000000000e+00
3.000000000000000000e+01,6.000000000000000000e+00,1.916194443999999919e+01,0.000000000000000000e+00
3.000000000000000000e+01,9.000000000000000000e+00,1.325738888999999858e+02,0.000000000000000000e+00
3.000000000000000000e+01,1.100000000000000000e+01,1.699950000000000045e+02,0.000000000000000000e+00
3.400000000000000000e+01,9.000000000000000000e+00,2.392230555999999808e+02,0.000000000000000000e+00
3.500000000000000000e+01,7.000000000000000000e+00,9.309305555999999626e+01,0.000000000000000000e+00
2.600000000000000000e+01,8.000000000000000000e+00,1.012219443999999982e+02,1.000000000000000000e+00
2.600000000000000000e+01,1.000000000000000000e+01,8.856000000000000227e+01,1.000000000000000000e+00
2.400000000000000000e+01,1.000000000000000000e+01,2.127619444000000044e+02,1.000000000000000000e+00
2.200000000000000000e+01,9.000000000000000000e+00,8.409888888999999779e+01,1.000000000000000000e+00
1.900000000000000000e+01,8.000000000000000000e+00,5.513000000000000256e+01,1.000000000000000000e+00
2.100000000000000000e+01,6.000000000000000000e+00,1.502800000000000011e+02,1.000000000000000000e+00
2.100000000000000000e+01,6.000000000000000000e+00,5.685611111000000051e+01,1.000000000000000000e+00
2.600000000000000000e+01,8.000000000000000000e+00,1.012219443999999982e+02,1.000000000000000000e+00
