3.000000000000000000e+01,1.700000000000000000e+01,1.924230555999999979e+02,0.000000000000000000e+00
3.200000000000000000e+01,1.800000000000000000e+01,3.948119443999999589e+02,0.000000000000000000e+00
3.500000000000000000e+01,2.300000000000000000e+01,3.150199999999999818e+02,0.000000000000000000e+00
3.100000000000000000e+01,2.400000000000000000e+01,2.359561111000000153e+02,0.000000000000000000e+00
3.000000000000000000e+01,2.100000000000000000e+01,1.133119444000000158e+02,0.000000000000000000e+00
3.000000000000000000e+01,1.700000000000000000e+01,1.924230555999999979e+02,0.000000000000000000e+00
2.300000000000000000e+01,1.400000000000000000e+01,2.825550000000000068e+02,1.000000000000000000e+00
2.300000000000000000e+01,1.900000000000000000e+01,1.530000000000000000e+02,1.000000000000000000e+00
2.600000000000000000e+01,2.000000000000000000e+01,5.467949999999999591e+02,1.000000000000000000e+00
2.500000000000000000e+01,1.700000000000000000e+01,2.881438888999999790e+02,1.000000000000000000e+00
2.500000000000000000e+01,1.500000000000000000e+01,2.365649999999999977e+02,1.000000000000000000e+00
2.600000000000000000e+01,1.300000000000000000e+01,1.963361111000000108e+02,1.000000000000000000e+00
2.300000000000000000e+01,1.400000000000000000e+01,2.825550000000000068e+02,1.000000000000000000e+00
