2.600000000000000000e+01,2.600000000000000000e+01,2.679380555999999842e+02,0.000000000000000000e+00
2.400000000000000000e+01,2.600000000000000000e+01,1.016638889000000034e+02,0.000000000000000000e+00
2.400000000000000000e+01,2.700000000000000000e+01,3.482194444000000288e+01,0.000000000000000000e+00
2.400000000000000000e+01,2.900000000000000000e+01,7.112000000000000455e+01,0.000000000000000000e+00
2.300000000000000000e+01,2.800000000000000000e+01,7.132999999999999829e+01,0.000000000000000000e+00
2.100000000000000000e+01,2.800000000000000000e+01,1.907199999999999989e+02,0.000000000000000000e+00
2.100000000000000000e+01,2.700000000000000000e+01,1.316349999999999909e+02,0.000000000000000000e+00
2.100000000000000000e+01,2.500000000000000000e+01,1.139880555999999814e+02,0.000000000000000000e+00
2.400000000000000000e+01,2.500000000000000000e+01,7.154999999999999716e+01,0.000000000000000000e+00
2.600000000000000000e+01,2.400000000000000000e+01,8.790000000000000568e+01,0.000000000000000000e+00
2.600000000000000000e+01,2.600000000000000000e+01,2.679380555999999842e+02,0.000000000000000000e+00
1.700000000000000000e+01,2.500000000000000000e+01,4.487305555999999740e+01,1.000000000000000000e+00
1.600000000000000000e+01,2.600000000000000000e+01,1.953600000000000136e+02,1.000000000000000000e+00
1.600000000000000000e+01,2.600000000000000000e+01,9.551305555999999797e+01,1.000000000000000000e+00
1.500000000000000000e+01,2.700000000000000000e+01,4.636805556000000195e+01,1.000000000000000000e+00
1.300000000000000000e+01,2.800000000000000000e+01,1.610411110999999948e+02,1.000000000000000000e+00
1.400000000000000000e+01,2.500000000000000000e+01,4.144500000000000028e+01,1.000000000000000000e+00
1.200000000000000000e+01,2.400000000000000000e+01,2.017080555999999945e+02,1.000000000000000000e+00
1.500000000000000000e+01,2.200000000000000000e+01,7.300805556000000252e+01,1.000000000000000000e+00
1.700000000000000000e+01,2.500000000000000000e+01,4.487305555999999740e+01,1.000000000000000000e+00
