4.300000000000000000e+01,2.900000000000000000e+01,5.410000000000000142e+01,0.000000000000000000e+00
4.200000000000000000e+01,2.900000000000000000e+01,2.130694443999999876e+01,0.000000000000000000e+00
3.600000000000000000e+01,2.700000000000000000e+01,3.615694443999999663e+01,0.000000000000000000e+00
3.600000000000000000e+01,3.000000000000000000e+01,9.121805555999999626e+01,0.000000000000000000e+00
3.800000000000000000e+01,3.000000000000000000e+01,2.861611110999999852e+01,0.000000000000000000e+00
4.100000000000000000e+01,3.200000000000000000e+01,7.193000000000000682e+01,0.000000000000000000e+00
4.200000000000000000e+01,3.100000000000000000e+01,2.911694444000000104e+01,0.000000000000000000e+00
4.300000000000000000e+01,2.900000000000000000e+01,5.410000000000000142e+01,0.000000000000000000e+00
3.400000000000000000e+01,3.400000000000000000e+01,8.665805555999999399e+01,1.000000000000000000e+00
3.300000000000000000e+01,3.300000000000000000e+01,3.585305556000000138e+01,1.000000000000000000e+00
3.200000000000000000e+01,3.200000000000000000e+01,4.114805556000000308e+01,1.000000000000000000e+00
3.100000000000000000e+01,2.800000000000000000e+01,4.239999999999999858e+01,1.000000000000000000e+00
2.800000000000000000e+01,2.900000000000000000e+01,5.946611110999999994e+01,1.000000000000000000e+00
2.600000000000000000e+01,3.200000000000000000e+01,1.781119444000000271e+02,1.000000000000000000e+00
2.900000000000000000e+01,3.500000000000000000e+01,1.312500000000000000e+02,1.000000000000000000e+00
3.400000000000000000e+01,3.400000000000000000e+01,8.665805555999999399e+01,1.000000000000000000e+00
