<?xml version="1.0" encoding="UTF-8"?>
<kml xmlns="http://www.opengis.net/kml/2.2" xmlns:gx="http://www.google.com/kml/ext/2.2" xmlns:kml="http://www.opengis.net/kml/2.2" xmlns:atom="http://www.w3.org/2005/Atom"><Document>
<Placemark>
<Style><LineStyle><width>2.2255132819751604</width></LineStyle></Style>
<LineString><tessellate>1</tessellate><coordinates>
6.577441955293,53.23151089344002,0
6.577441955293,53.23151089344002,0
</coordinates></LineString></Placemark>
<Placemark>
<Style><LineStyle><width>2.2255132819751604</width></LineStyle></Style>
<LineString><tessellate>1</tessellate><coordinates>
6.577441955293,53.23151089344002,0
6.5759262978903505,53.231192543415204,0
</coordinates></LineString></Placemark>
<Placemark>
<Style><LineStyle><width>2.2255132819751604</width></LineStyle></Style>
<LineString><tessellate>1</tessellate><coordinates>
6.5759262978903505,53.231192543415204,0
6.57402972795895,53.2324636704597,0
</coordinates></LineString></Placemark>
<Placemark>
<Style><LineStyle><width>2.2255132819751604</width></LineStyle></Style>
<LineString><tessellate>1</tessellate><coordinates>
6.57402972795895,53.2324636704597,0
6.5755461465723,53.2321461863605,0
</coordinates></LineString></Placemark>
<Placemark>
<Style><LineStyle><width>2.2255132819751604</width></LineStyle></Style>
<LineString><tessellate>1</tessellate><coordinates>
6.5755461465723,53.2321461863605,0
6.576303784970951,53.23246431990391,0
</coordinates></LineString></Placemark>
<Placemark>
<Style><LineStyle><width>2.2255132819751604</width></LineStyle></Style>
<LineString><tessellate>1</tessellate><coordinates>
6.576303784970951,53.23246431990391,0
6.577441955293,53.23151089344002,0
</coordinates></LineString></Placemark>
<Placemark>
<Style><LineStyle><width>2.0996181892178023</width></LineStyle></Style>
<LineString><tessellate>1</tessellate><coordinates>
6.573653763299751,53.22992022572299,0
6.573653763299751,53.22992022572299,0
</coordinates></LineString></Placemark>
<Placemark>
<Style><LineStyle><width>2.0996181892178023</width></LineStyle></Style>
<LineString><tessellate>1</tessellate><coordinates>
6.573653763299751,53.22992022572299,0
6.572894602479701,53.23087376042759,0
</coordinates></LineString></Placemark>
<Placemark>
<Style><LineStyle><width>2.0996181892178023</width></LineStyle></Style>
<LineString><tessellate>1</tessellate><coordinates>
6.572894602479701,53.23087376042759,0
6.57403048916965,53.2318278363357,0
</coordinates></LineString></Placemark>
<Placemark>
<Style><LineStyle><width>2.0996181892178023</width></LineStyle></Style>
<LineString><tessellate>1</tessellate><coordinates>
6.57403048916965,53.2318278363357,0
6.574031250380351,53.2311920022117,0
</coordinates></LineString></Placemark>
<Placemark>
<Style><LineStyle><width>2.0996181892178023</width></LineStyle></Style>
<LineString><tessellate>1</tessellate><coordinates>
6.574031250380351,53.2311920022117,0
6.573653763299751,53.22992022572299,0
</coordinates></LineString></Placemark>
<Placemark>
<Style><LineStyle><width>2.2255132819751604</width></LineStyle></Style>
<LineString><tessellate>1</tessellate><coordinates>
6.5743998571718825,53.23221560090934,0
6.574226783246049,53.23203390694037,0
</coordinates></LineString></Placemark>
<Placemark>
<Style><LineStyle><width>2.2255132819751604</width></LineStyle></Style>
<LineString><tessellate>1</tessellate><coordinates>
6.574226783246049,53.23203390694037,0
6.57403048916965,53.2318278363357,0
</coordinates></LineString></Placemark>
<Placemark>
<Style><LineStyle><width>4.674566519140105</width></LineStyle></Style>
<LineString><tessellate>1</tessellate><coordinates>
6.562676189534351,53.21847207251064,0
6.562676189534351,53.21847207251064,0
</coordinates></LineString></Placemark>
<Placemark>
<Style><LineStyle><width>4.674566519140105</width></LineStyle></Style>
<LineString><tessellate>1</tessellate><coordinates>
6.562676189534351,53.21847207251064,0
6.562297560637701,53.21815404720793,0
</coordinates></LineString></Placemark>
<Placemark>
<Style><LineStyle><width>4.674566519140105</width></LineStyle></Style>
<LineString><tessellate>1</tessellate><coordinates>
6.562297560637701,53.21815404720793,0
6.5615395416337,53.21815383072653,0
</coordinates></LineString></Placemark>
<Placemark>
<Style><LineStyle><width>4.674566519140105</width></LineStyle></Style>
<LineString><tessellate>1</tessellate><coordinates>
6.5615395416337,53.21815383072653,0
6.56040289373305,53.21783558894242,0
</coordinates></LineString></Placemark>
<Placemark>
<Style><LineStyle><width>4.674566519140105</width></LineStyle></Style>
<LineString><tessellate>1</tessellate><coordinates>
6.56040289373305,53.21783558894242,0
6.559646777755801,53.21624578715102,0
</coordinates></LineString></Placemark>
<Placemark>
<Style><LineStyle><width>4.674566519140105</width></LineStyle></Style>
<LineString><tessellate>1</tessellate><coordinates>
6.559646777755801,53.21624578715102,0
6.560783425656451,53.216564028935124,0
</coordinates></LineString></Placemark>
<Placemark>
<Style><LineStyle><width>4.674566519140105</width></LineStyle></Style>
<LineString><tessellate>1</tessellate><coordinates>
6.560783425656451,53.216564028935124,0
6.560783425656451,53.216564028935124,0
</coordinates></LineString></Placemark>
<Placemark>
<Style><LineStyle><width>4.674566519140105</width></LineStyle></Style>
<LineString><tessellate>1</tessellate><coordinates>
6.560783425656451,53.216564028935124,0
6.56116167394775,53.217199971299834,0
</coordinates></LineString></Placemark>
<Placemark>
<Style><LineStyle><width>4.674566519140105</width></LineStyle></Style>
<LineString><tessellate>1</tessellate><coordinates>
6.56116167394775,53.217199971299834,0
6.5622987024537505,53.217200296021936,0
</coordinates></LineString></Placemark>
<Placemark>
<Style><LineStyle><width>4.674566519140105</width></LineStyle></Style>
<LineString><tessellate>1</tessellate><coordinates>
6.5622987024537505,53.217200296021936,0
6.5626780925611,53.21688248720064,0
</coordinates></LineString></Placemark>
<Placemark>
<Style><LineStyle><width>4.674566519140105</width></LineStyle></Style>
<LineString><tessellate>1</tessellate><coordinates>
6.5626780925611,53.21688248720064,0
6.5634368727758,53.21624686955804,0
</coordinates></LineString></Placemark>
<Placemark>
<Style><LineStyle><width>4.674566519140105</width></LineStyle></Style>
<LineString><tessellate>1</tessellate><coordinates>
6.5634368727758,53.21624686955804,0
6.56305596024705,53.21783634662734,0
</coordinates></LineString></Placemark>
<Placemark>
<Style><LineStyle><width>4.674566519140105</width></LineStyle></Style>
<LineString><tessellate>1</tessellate><coordinates>
6.56305596024705,53.21783634662734,0
6.562676189534351,53.21847207251064,0
</coordinates></LineString></Placemark>
<Placemark>
<Style><LineStyle><width>3.624077659923056</width></LineStyle></Style>
<LineString><tessellate>1</tessellate><coordinates>
6.56040669978655,53.21465641832242,0
6.56040669978655,53.21465641832242,0
</coordinates></LineString></Placemark>
<Placemark>
<Style><LineStyle><width>3.624077659923056</width></LineStyle></Style>
<LineString><tessellate>1</tessellate><coordinates>
6.56040669978655,53.21465641832242,0
6.56040593857585,53.215292252446424,0
</coordinates></LineString></Placemark>
<Placemark>
<Style><LineStyle><width>3.624077659923056</width></LineStyle></Style>
<LineString><tessellate>1</tessellate><coordinates>
6.56040593857585,53.215292252446424,0
6.560785328683201,53.214974443625124,0
</coordinates></LineString></Placemark>
<Placemark>
<Style><LineStyle><width>3.624077659923056</width></LineStyle></Style>
<LineString><tessellate>1</tessellate><coordinates>
6.560785328683201,53.214974443625124,0
6.561163957579851,53.215292468927835,0
</coordinates></LineString></Placemark>
<Placemark>
<Style><LineStyle><width>3.624077659923056</width></LineStyle></Style>
<LineString><tessellate>1</tessellate><coordinates>
6.561163957579851,53.215292468927835,0
6.561163196369151,53.21592830305183,0
</coordinates></LineString></Placemark>
<Placemark>
<Style><LineStyle><width>3.624077659923056</width></LineStyle></Style>
<LineString><tessellate>1</tessellate><coordinates>
6.561163196369151,53.21592830305183,0
6.5630582438791505,53.21592884425534,0
</coordinates></LineString></Placemark>
<Placemark>
<Style><LineStyle><width>3.624077659923056</width></LineStyle></Style>
<LineString><tessellate>1</tessellate><coordinates>
6.5630582438791505,53.21592884425534,0
6.562301747296551,53.21465695952593,0
</coordinates></LineString></Placemark>
<Placemark>
<Style><LineStyle><width>3.624077659923056</width></LineStyle></Style>
<LineString><tessellate>1</tessellate><coordinates>
6.562301747296551,53.21465695952593,0
6.5619231183999,53.214338934223235,0
</coordinates></LineString></Placemark>
<Placemark>
<Style><LineStyle><width>3.624077659923056</width></LineStyle></Style>
<LineString><tessellate>1</tessellate><coordinates>
6.5619231183999,53.214338934223235,0
6.5607860898939006,53.21433860950113,0
</coordinates></LineString></Placemark>
<Placemark>
<Style><LineStyle><width>3.624077659923056</width></LineStyle></Style>
<LineString><tessellate>1</tessellate><coordinates>
6.5607860898939006,53.21433860950113,0
6.56040669978655,53.21465641832242,0
</coordinates></LineString></Placemark>
<Placemark>
<Style><LineStyle><width>4.674566519140105</width></LineStyle></Style>
<LineString><tessellate>1</tessellate><coordinates>
6.5634368727758,53.21624686955804,0
6.563338758200311,53.216164459267006,0
</coordinates></LineString></Placemark>
<Placemark>
<Style><LineStyle><width>4.674566519140105</width></LineStyle></Style>
<LineString><tessellate>1</tessellate><coordinates>
6.563338758200311,53.216164459267006,0
6.5630582438791505,53.21592884425534,0
</coordinates></LineString></Placemark>
<Placemark>
<Style><LineStyle><width>2.162289762487726</width></LineStyle></Style>
<LineString><tessellate>1</tessellate><coordinates>
6.572137725291751,53.229919792760185,0
6.572137725291751,53.229919792760185,0
</coordinates></LineString></Placemark>
<Placemark>
<Style><LineStyle><width>2.162289762487726</width></LineStyle></Style>
<LineString><tessellate>1</tessellate><coordinates>
6.572137725291751,53.229919792760185,0
6.572137344686401,53.230237709822184,0
</coordinates></LineString></Placemark>
<Placemark>
<Style><LineStyle><width>2.162289762487726</width></LineStyle></Style>
<LineString><tessellate>1</tessellate><coordinates>
6.572137344686401,53.230237709822184,0
6.5713793256824005,53.23023749334078,0
</coordinates></LineString></Placemark>
<Placemark>
<Style><LineStyle><width>2.162289762487726</width></LineStyle></Style>
<LineString><tessellate>1</tessellate><coordinates>
6.5713793256824005,53.23023749334078,0
6.56986442949045,53.22928330919198,0
</coordinates></LineString></Placemark>
<Placemark>
<Style><LineStyle><width>2.162289762487726</width></LineStyle></Style>
<LineString><tessellate>1</tessellate><coordinates>
6.56986442949045,53.22928330919198,0
6.570622067889101,53.22960144273538,0
</coordinates></LineString></Placemark>
<Placemark>
<Style><LineStyle><width>2.162289762487726</width></LineStyle></Style>
<LineString><tessellate>1</tessellate><coordinates>
6.570622067889101,53.22960144273538,0
6.572137725291751,53.229919792760185,0
</coordinates></LineString></Placemark>
<Placemark>
<Style><LineStyle><width>2.1014760540400887</width></LineStyle></Style>
<LineString><tessellate>1</tessellate><coordinates>
6.5675915142945005,53.228328908561764,0
6.5675915142945005,53.228328908561764,0
</coordinates></LineString></Placemark>
<Placemark>
<Style><LineStyle><width>2.1014760540400887</width></LineStyle></Style>
<LineString><tessellate>1</tessellate><coordinates>
6.5675915142945005,53.228328908561764,0
6.568349913903851,53.22801120798117,0
</coordinates></LineString></Placemark>
<Placemark>
<Style><LineStyle><width>2.1014760540400887</width></LineStyle></Style>
<LineString><tessellate>1</tessellate><coordinates>
6.568349913903851,53.22801120798117,0
6.5691083135132,53.22769350740057,0
</coordinates></LineString></Placemark>
<Placemark>
<Style><LineStyle><width>2.1014760540400887</width></LineStyle></Style>
<LineString><tessellate>1</tessellate><coordinates>
6.5691083135132,53.22769350740057,0
6.5694858005938,53.22896528388927,0
</coordinates></LineString></Placemark>
<Placemark>
<Style><LineStyle><width>2.1014760540400887</width></LineStyle></Style>
<LineString><tessellate>1</tessellate><coordinates>
6.5694858005938,53.22896528388927,0
6.5679693819804505,53.229282767988465,0
</coordinates></LineString></Placemark>
<Placemark>
<Style><LineStyle><width>2.1014760540400887</width></LineStyle></Style>
<LineString><tessellate>1</tessellate><coordinates>
6.5679693819804505,53.229282767988465,0
6.5675915142945005,53.228328908561764,0
</coordinates></LineString></Placemark>
<Placemark>
<Style><LineStyle><width>2.162289762487726</width></LineStyle></Style>
<LineString><tessellate>1</tessellate><coordinates>
6.56986442949045,53.22928330919198,0
6.569680869724283,53.22912913012451,0
</coordinates></LineString></Placemark>
<Placemark>
<Style><LineStyle><width>2.162289762487726</width></LineStyle></Style>
<LineString><tessellate>1</tessellate><coordinates>
6.569680869724283,53.22912913012451,0
6.5694858005938,53.22896528388927,0
</coordinates></LineString></Placemark>
<Placemark>
<Style><LineStyle><width>3.5650310714670255</width></LineStyle></Style>
<LineString><tessellate>1</tessellate><coordinates>
6.565703317680801,53.222605860242254,0
6.565703317680801,53.222605860242254,0
</coordinates></LineString></Placemark>
<Placemark>
<Style><LineStyle><width>3.5650310714670255</width></LineStyle></Style>
<LineString><tessellate>1</tessellate><coordinates>
6.565703317680801,53.222605860242254,0
6.566462478500851,53.221652325537654,0
</coordinates></LineString></Placemark>
<Placemark>
<Style><LineStyle><width>3.5650310714670255</width></LineStyle></Style>
<LineString><tessellate>1</tessellate><coordinates>
6.566462478500851,53.221652325537654,0
6.5675998876122,53.221334733197764,0
</coordinates></LineString></Placemark>
<Placemark>
<Style><LineStyle><width>3.5650310714670255</width></LineStyle></Style>
<LineString><tessellate>1</tessellate><coordinates>
6.5675998876122,53.221334733197764,0
6.567977374692801,53.222606509686464,0
</coordinates></LineString></Placemark>
<Placemark>
<Style><LineStyle><width>3.5650310714670255</width></LineStyle></Style>
<LineString><tessellate>1</tessellate><coordinates>
6.567977374692801,53.222606509686464,0
6.56835600358945,53.22292453498917,0
</coordinates></LineString></Placemark>
<Placemark>
<Style><LineStyle><width>3.5650310714670255</width></LineStyle></Style>
<LineString><tessellate>1</tessellate><coordinates>
6.56835600358945,53.22292453498917,0
6.5687346324861,53.223242560291865,0
</coordinates></LineString></Placemark>
<Placemark>
<Style><LineStyle><width>3.5650310714670255</width></LineStyle></Style>
<LineString><tessellate>1</tessellate><coordinates>
6.5687346324861,53.223242560291865,0
6.56683920437075,53.22355993615036,0
</coordinates></LineString></Placemark>
<Placemark>
<Style><LineStyle><width>3.5650310714670255</width></LineStyle></Style>
<LineString><tessellate>1</tessellate><coordinates>
6.56683920437075,53.22355993615036,0
6.565703317680801,53.222605860242254,0
</coordinates></LineString></Placemark>
<Placemark>
<Style><LineStyle><width>2.8314003309525075</width></LineStyle></Style>
<LineString><tessellate>1</tessellate><coordinates>
6.5717678503181505,53.22228967503149,0
6.5717678503181505,53.22228967503149,0
</coordinates></LineString></Placemark>
<Placemark>
<Style><LineStyle><width>2.8314003309525075</width></LineStyle></Style>
<LineString><tessellate>1</tessellate><coordinates>
6.5717678503181505,53.22228967503149,0
6.571388460210801,53.222607483852784,0
</coordinates></LineString></Placemark>
<Placemark>
<Style><LineStyle><width>2.8314003309525075</width></LineStyle></Style>
<LineString><tessellate>1</tessellate><coordinates>
6.571388460210801,53.222607483852784,0
6.5702521929155004,53.22197132500668,0
</coordinates></LineString></Placemark>
<Placemark>
<Style><LineStyle><width>2.8314003309525075</width></LineStyle></Style>
<LineString><tessellate>1</tessellate><coordinates>
6.5702521929155004,53.22197132500668,0
6.569494173911501,53.221971108525274,0
</coordinates></LineString></Placemark>
<Placemark>
<Style><LineStyle><width>2.8314003309525075</width></LineStyle></Style>
<LineString><tessellate>1</tessellate><coordinates>
6.569494173911501,53.221971108525274,0
6.569495315727551,53.22101735733927,0
</coordinates></LineString></Placemark>
<Placemark>
<Style><LineStyle><width>2.8314003309525075</width></LineStyle></Style>
<LineString><tessellate>1</tessellate><coordinates>
6.569495315727551,53.22101735733927,0
6.57176861152885,53.221653840907486,0
</coordinates></LineString></Placemark>
<Placemark>
<Style><LineStyle><width>2.8314003309525075</width></LineStyle></Style>
<LineString><tessellate>1</tessellate><coordinates>
6.57176861152885,53.221653840907486,0
6.572147621030851,53.221653949148184,0
</coordinates></LineString></Placemark>
<Placemark>
<Style><LineStyle><width>2.8314003309525075</width></LineStyle></Style>
<LineString><tessellate>1</tessellate><coordinates>
6.572147621030851,53.221653949148184,0
6.5717678503181505,53.22228967503149,0
</coordinates></LineString></Placemark>
<Placemark>
<Style><LineStyle><width>3.5650310714670255</width></LineStyle></Style>
<LineString><tessellate>1</tessellate><coordinates>
6.56835600358945,53.22292453498917,0
6.56872522432708,53.22261524488078,0
</coordinates></LineString></Placemark>
<Placemark>
<Style><LineStyle><width>3.5650310714670255</width></LineStyle></Style>
<LineString><tessellate>1</tessellate><coordinates>
6.56872522432708,53.22261524488078,0
6.569494173911501,53.221971108525274,0
</coordinates></LineString></Placemark>
<Placemark>
<Style><LineStyle><width>2.375219265424009</width></LineStyle></Style>
<LineString><tessellate>1</tessellate><coordinates>
6.556608612054201,53.2213315942174,0
6.556608612054201,53.2213315942174,0
</coordinates></LineString></Placemark>
<Placemark>
<Style><LineStyle><width>2.375219265424009</width></LineStyle></Style>
<LineString><tessellate>1</tessellate><coordinates>
6.556608612054201,53.2213315942174,0
6.55622998315755,53.22101356891471,0
</coordinates></LineString></Placemark>
<Placemark>
<Style><LineStyle><width>2.375219265424009</width></LineStyle></Style>
<LineString><tessellate>1</tessellate><coordinates>
6.55622998315755,53.22101356891471,0
6.5569883827669,53.22069586833411,0
</coordinates></LineString></Placemark>
<Placemark>
<Style><LineStyle><width>2.375219265424009</width></LineStyle></Style>
<LineString><tessellate>1</tessellate><coordinates>
6.5569883827669,53.22069586833411,0
6.5577479241923005,53.21942441656751,0
</coordinates></LineString></Placemark>
<Placemark>
<Style><LineStyle><width>2.375219265424009</width></LineStyle></Style>
<LineString><tessellate>1</tessellate><coordinates>
6.5577479241923005,53.21942441656751,0
6.5577464017709,53.220696084815515,0
</coordinates></LineString></Placemark>
<Placemark>
<Style><LineStyle><width>2.375219265424009</width></LineStyle></Style>
<LineString><tessellate>1</tessellate><coordinates>
6.5577464017709,53.220696084815515,0
6.556608612054201,53.2213315942174,0
</coordinates></LineString></Placemark>
<Placemark>
<Style><LineStyle><width>3.0362890769141786</width></LineStyle></Style>
<LineString><tessellate>1</tessellate><coordinates>
6.5592654846217,53.21815318128232,0
6.5592654846217,53.21815318128232,0
</coordinates></LineString></Placemark>
<Placemark>
<Style><LineStyle><width>3.0362890769141786</width></LineStyle></Style>
<LineString><tessellate>1</tessellate><coordinates>
6.5592654846217,53.21815318128232,0
6.55926434280565,53.21910693246832,0
</coordinates></LineString></Placemark>
<Placemark>
<Style><LineStyle><width>3.0362890769141786</width></LineStyle></Style>
<LineString><tessellate>1</tessellate><coordinates>
6.55926434280565,53.21910693246832,0
6.560021981204301,53.21942506601172,0
</coordinates></LineString></Placemark>
<Placemark>
<Style><LineStyle><width>3.0362890769141786</width></LineStyle></Style>
<LineString><tessellate>1</tessellate><coordinates>
6.560021981204301,53.21942506601172,0
6.55888457209295,53.21974265835161,0
</coordinates></LineString></Placemark>
<Placemark>
<Style><LineStyle><width>3.0362890769141786</width></LineStyle></Style>
<LineString><tessellate>1</tessellate><coordinates>
6.55888457209295,53.21974265835161,0
6.558505943196301,53.21942463304892,0
</coordinates></LineString></Placemark>
<Placemark>
<Style><LineStyle><width>3.0362890769141786</width></LineStyle></Style>
<LineString><tessellate>1</tessellate><coordinates>
6.558505943196301,53.21942463304892,0
6.558127314299651,53.21910660774621,0
</coordinates></LineString></Placemark>
<Placemark>
<Style><LineStyle><width>3.0362890769141786</width></LineStyle></Style>
<LineString><tessellate>1</tessellate><coordinates>
6.558127314299651,53.21910660774621,0
6.5592654846217,53.21815318128232,0
</coordinates></LineString></Placemark>
<Placemark>
<Style><LineStyle><width>3.0362890769141786</width></LineStyle></Style>
<LineString><tessellate>1</tessellate><coordinates>
6.5577479241923005,53.21942441656751,0
6.557998132220773,53.21921482143693,0
</coordinates></LineString></Placemark>
<Placemark>
<Style><LineStyle><width>3.0362890769141786</width></LineStyle></Style>
<LineString><tessellate>1</tessellate><coordinates>
6.557998132220773,53.21921482143693,0
6.558127314299651,53.21910660774621,0
</coordinates></LineString></Placemark>
<Placemark>
<Style><LineStyle><width>2.0192085902599115</width></LineStyle></Style>
<LineString><tessellate>1</tessellate><coordinates>
6.5827579840601,53.22324656519784,0
6.5827579840601,53.22324656519784,0
</coordinates></LineString></Placemark>
<Placemark>
<Style><LineStyle><width>2.0192085902599115</width></LineStyle></Style>
<LineString><tessellate>1</tessellate><coordinates>
6.5827579840601,53.22324656519784,0
6.582380877584851,53.22165687164714,0
</coordinates></LineString></Placemark>
<Placemark>
<Style><LineStyle><width>2.0192085902599115</width></LineStyle></Style>
<LineString><tessellate>1</tessellate><coordinates>
6.582380877584851,53.22165687164714,0
6.58010682057285,53.221656222202924,0
</coordinates></LineString></Placemark>
<Placemark>
<Style><LineStyle><width>2.0192085902599115</width></LineStyle></Style>
<LineString><tessellate>1</tessellate><coordinates>
6.58010682057285,53.221656222202924,0
6.5827579840601,53.22324656519784,0
</coordinates></LineString></Placemark>
<Placemark>
<Style><LineStyle><width>1.7833894237576067</width></LineStyle></Style>
<LineString><tessellate>1</tessellate><coordinates>
6.58124765513235,53.21847737630504,0
6.58124765513235,53.21847737630504,0
</coordinates></LineString></Placemark>
<Placemark>
<Style><LineStyle><width>1.7833894237576067</width></LineStyle></Style>
<LineString><tessellate>1</tessellate><coordinates>
6.58124765513235,53.21847737630504,0
6.58011138783705,53.217841217458925,0
</coordinates></LineString></Placemark>
<Placemark>
<Style><LineStyle><width>1.7833894237576067</width></LineStyle></Style>
<LineString><tessellate>1</tessellate><coordinates>
6.58011138783705,53.217841217458925,0
6.583521712144351,53.21847802574925,0
</coordinates></LineString></Placemark>
<Placemark>
<Style><LineStyle><width>1.7833894237576067</width></LineStyle></Style>
<LineString><tessellate>1</tessellate><coordinates>
6.583521712144351,53.21847802574925,0
6.5827633125350005,53.218795726329844,0
</coordinates></LineString></Placemark>
<Placemark>
<Style><LineStyle><width>1.7833894237576067</width></LineStyle></Style>
<LineString><tessellate>1</tessellate><coordinates>
6.5827633125350005,53.218795726329844,0
6.58124765513235,53.21847737630504,0
</coordinates></LineString></Placemark>
<Placemark>
<Style><LineStyle><width>2.0192085902599115</width></LineStyle></Style>
<LineString><tessellate>1</tessellate><coordinates>
6.582380877584851,53.22165687164714,0
6.582549652595316,53.22039419984619,0
</coordinates></LineString></Placemark>
<Placemark>
<Style><LineStyle><width>2.0192085902599115</width></LineStyle></Style>
<LineString><tessellate>1</tessellate><coordinates>
6.582549652595316,53.22039419984619,0
6.5827633125350005,53.218795726329844,0
</coordinates></LineString></Placemark>
<Placemark>
<Style><LineStyle><width>3.586293564784574</width></LineStyle></Style>
<LineString><tessellate>1</tessellate><coordinates>
6.5782129148789,53.22070192981342,0
6.5782129148789,53.22070192981342,0
</coordinates></LineString></Placemark>
<Placemark>
<Style><LineStyle><width>3.586293564784574</width></LineStyle></Style>
<LineString><tessellate>1</tessellate><coordinates>
6.5782129148789,53.22070192981342,0
6.57669801868695,53.21974774566461,0
</coordinates></LineString></Placemark>
<Placemark>
<Style><LineStyle><width>3.586293564784574</width></LineStyle></Style>
<LineString><tessellate>1</tessellate><coordinates>
6.57669801868695,53.21974774566461,0
6.575561751391651,53.21911158681851,0
</coordinates></LineString></Placemark>
<Placemark>
<Style><LineStyle><width>3.586293564784574</width></LineStyle></Style>
<LineString><tessellate>1</tessellate><coordinates>
6.575561751391651,53.21911158681851,0
6.57594152210435,53.21847586093521,0
</coordinates></LineString></Placemark>
<Placemark>
<Style><LineStyle><width>3.586293564784574</width></LineStyle></Style>
<LineString><tessellate>1</tessellate><coordinates>
6.57594152210435,53.21847586093521,0
6.5778377114304005,53.217522650952716,0
</coordinates></LineString></Placemark>
<Placemark>
<Style><LineStyle><width>3.586293564784574</width></LineStyle></Style>
<LineString><tessellate>1</tessellate><coordinates>
6.5778377114304005,53.217522650952716,0
6.577836189009001,53.21879431920072,0
</coordinates></LineString></Placemark>
<Placemark>
<Style><LineStyle><width>3.586293564784574</width></LineStyle></Style>
<LineString><tessellate>1</tessellate><coordinates>
6.577836189009001,53.21879431920072,0
6.5782129148789,53.22070192981342,0
</coordinates></LineString></Placemark>
<Placemark>
<Style><LineStyle><width>3.591845219681149</width></LineStyle></Style>
<LineString><tessellate>1</tessellate><coordinates>
6.5744266259124,53.2175216767864,0
6.5744266259124,53.2175216767864,0
</coordinates></LineString></Placemark>
<Placemark>
<Style><LineStyle><width>3.591845219681149</width></LineStyle></Style>
<LineString><tessellate>1</tessellate><coordinates>
6.5744266259124,53.2175216767864,0
6.57480525480905,53.2178397020891,0
</coordinates></LineString></Placemark>
<Placemark>
<Style><LineStyle><width>3.591845219681149</width></LineStyle></Style>
<LineString><tessellate>1</tessellate><coordinates>
6.57480525480905,53.2178397020891,0
6.57556327381305,53.217839918570505,0
</coordinates></LineString></Placemark>
<Placemark>
<Style><LineStyle><width>3.591845219681149</width></LineStyle></Style>
<LineString><tessellate>1</tessellate><coordinates>
6.57556327381305,53.217839918570505,0
6.57670106352975,53.217204409168616,0
</coordinates></LineString></Placemark>
<Placemark>
<Style><LineStyle><width>3.591845219681149</width></LineStyle></Style>
<LineString><tessellate>1</tessellate><coordinates>
6.57670106352975,53.217204409168616,0
6.5770804536371,53.216886600347316,0
</coordinates></LineString></Placemark>
<Placemark>
<Style><LineStyle><width>3.591845219681149</width></LineStyle></Style>
<LineString><tessellate>1</tessellate><coordinates>
6.5770804536371,53.216886600347316,0
6.5763224346331,53.21688638386591,0
</coordinates></LineString></Placemark>
<Placemark>
<Style><LineStyle><width>3.591845219681149</width></LineStyle></Style>
<LineString><tessellate>1</tessellate><coordinates>
6.5763224346331,53.21688638386591,0
6.575185786732451,53.2165681420818,0
</coordinates></LineString></Placemark>
<Placemark>
<Style><LineStyle><width>3.591845219681149</width></LineStyle></Style>
<LineString><tessellate>1</tessellate><coordinates>
6.575185786732451,53.2165681420818,0
6.5744266259124,53.2175216767864,0
</coordinates></LineString></Placemark>
<Placemark>
<Style><LineStyle><width>3.591845219681149</width></LineStyle></Style>
<LineString><tessellate>1</tessellate><coordinates>
6.575997258848886,53.218447842204725,0
6.5757796639975465,53.21814303664464,0
</coordinates></LineString></Placemark>
<Placemark>
<Style><LineStyle><width>3.591845219681149</width></LineStyle></Style>
<LineString><tessellate>1</tessellate><coordinates>
6.5757796639975465,53.21814303664464,0
6.57556327381305,53.217839918570505,0
</coordinates></LineString></Placemark>
<Placemark>
<Style><LineStyle><width>2.8882806664208625</width></LineStyle></Style>
<LineString><tessellate>1</tessellate><coordinates>
6.5615326907374,53.22387633784253,0
6.5615326907374,53.22387633784253,0
</coordinates></LineString></Placemark>
<Placemark>
<Style><LineStyle><width>2.8882806664208625</width></LineStyle></Style>
<LineString><tessellate>1</tessellate><coordinates>
6.5615326907374,53.22387633784253,0
6.560775052338751,53.223558204299124,0
</coordinates></LineString></Placemark>
<Placemark>
<Style><LineStyle><width>2.8882806664208625</width></LineStyle></Style>
<LineString><tessellate>1</tessellate><coordinates>
6.560775052338751,53.223558204299124,0
6.5603975652581505,53.222286427810424,0
</coordinates></LineString></Placemark>
<Placemark>
<Style><LineStyle><width>2.8882806664208625</width></LineStyle></Style>
<LineString><tessellate>1</tessellate><coordinates>
6.5603975652581505,53.222286427810424,0
6.56001779454545,53.22292215369372,0
</coordinates></LineString></Placemark>
<Placemark>
<Style><LineStyle><width>2.8882806664208625</width></LineStyle></Style>
<LineString><tessellate>1</tessellate><coordinates>
6.56001779454545,53.22292215369372,0
6.5588796242234,53.22387558015762,0
</coordinates></LineString></Placemark>
<Placemark>
<Style><LineStyle><width>2.8882806664208625</width></LineStyle></Style>
<LineString><tessellate>1</tessellate><coordinates>
6.5588796242234,53.22387558015762,0
6.558120844008701,53.22451119780021,0
</coordinates></LineString></Placemark>
<Placemark>
<Style><LineStyle><width>2.8882806664208625</width></LineStyle></Style>
<LineString><tessellate>1</tessellate><coordinates>
6.558120844008701,53.22451119780021,0
6.558499472905351,53.224829223102915,0
</coordinates></LineString></Placemark>
<Placemark>
<Style><LineStyle><width>2.8882806664208625</width></LineStyle></Style>
<LineString><tessellate>1</tessellate><coordinates>
6.558499472905351,53.224829223102915,0
6.560015891518701,53.224511739003724,0
</coordinates></LineString></Placemark>
<Placemark>
<Style><LineStyle><width>2.8882806664208625</width></LineStyle></Style>
<LineString><tessellate>1</tessellate><coordinates>
6.560015891518701,53.224511739003724,0
6.5615326907374,53.22387633784253,0
</coordinates></LineString></Placemark>
<Placemark>
<Style><LineStyle><width>2.9756291832133113</width></LineStyle></Style>
<LineString><tessellate>1</tessellate><coordinates>
6.5573635862154,53.22387514719481,0
6.5573635862154,53.22387514719481,0
</coordinates></LineString></Placemark>
<Placemark>
<Style><LineStyle><width>2.9756291832133113</width></LineStyle></Style>
<LineString><tessellate>1</tessellate><coordinates>
6.5573635862154,53.22387514719481,0
6.5569853379241,53.22323920483011,0
</coordinates></LineString></Placemark>
<Placemark>
<Style><LineStyle><width>2.9756291832133113</width></LineStyle></Style>
<LineString><tessellate>1</tessellate><coordinates>
6.5569853379241,53.22323920483011,0
6.5577448793495,53.22196775306352,0
</coordinates></LineString></Placemark>
<Placemark>
<Style><LineStyle><width>2.9756291832133113</width></LineStyle></Style>
<LineString><tessellate>1</tessellate><coordinates>
6.5577448793495,53.22196775306352,0
6.55888228846085,53.22165016072361,0
</coordinates></LineString></Placemark>
<Placemark>
<Style><LineStyle><width>2.9756291832133113</width></LineStyle></Style>
<LineString><tessellate>1</tessellate><coordinates>
6.55888228846085,53.22165016072361,0
6.5592601561468005,53.22260402015032,0
</coordinates></LineString></Placemark>
<Placemark>
<Style><LineStyle><width>2.9756291832133113</width></LineStyle></Style>
<LineString><tessellate>1</tessellate><coordinates>
6.5592601561468005,53.22260402015032,0
6.5573635862154,53.22387514719481,0
</coordinates></LineString></Placemark>
<Placemark>
<Style><LineStyle><width>2.9756291832133113</width></LineStyle></Style>
<LineString><tessellate>1</tessellate><coordinates>
6.559830291528144,53.22307922187174,0
6.559532781627921,53.22283125056183,0
</coordinates></LineString></Placemark>
<Placemark>
<Style><LineStyle><width>2.9756291832133113</width></LineStyle></Style>
<LineString><tessellate>1</tessellate><coordinates>
6.559532781627921,53.22283125056183,0
6.5592601561468005,53.22260402015032,0
</coordinates></LineString></Placemark>
<Placemark>
<Style><LineStyle><width>2.631729774968467</width></LineStyle></Style>
<LineString><tessellate>1</tessellate><coordinates>
6.5854064833099,53.22706232762676,0
6.5854064833099,53.22706232762676,0
</coordinates></LineString></Placemark>
<Placemark>
<Style><LineStyle><width>2.631729774968467</width></LineStyle></Style>
<LineString><tessellate>1</tessellate><coordinates>
6.5854064833099,53.22706232762676,0
6.5846492255166,53.22642627702135,0
</coordinates></LineString></Placemark>
<Placemark>
<Style><LineStyle><width>2.631729774968467</width></LineStyle></Style>
<LineString><tessellate>1</tessellate><coordinates>
6.5846492255166,53.22642627702135,0
6.58427059661995,53.22610825171865,0
</coordinates></LineString></Placemark>
<Placemark>
<Style><LineStyle><width>2.631729774968467</width></LineStyle></Style>
<LineString><tessellate>1</tessellate><coordinates>
6.58427059661995,53.22610825171865,0
6.58427059661995,53.22610825171865,0
</coordinates></LineString></Placemark>
<Placemark>
<Style><LineStyle><width>2.631729774968467</width></LineStyle></Style>
<LineString><tessellate>1</tessellate><coordinates>
6.58427059661995,53.22610825171865,0
6.58351257761595,53.226108035237246,0
</coordinates></LineString></Placemark>
<Placemark>
<Style><LineStyle><width>2.631729774968467</width></LineStyle></Style>
<LineString><tessellate>1</tessellate><coordinates>
6.58351257761595,53.226108035237246,0
6.5823751685046,53.22642562757714,0
</coordinates></LineString></Placemark>
<Placemark>
<Style><LineStyle><width>2.631729774968467</width></LineStyle></Style>
<LineString><tessellate>1</tessellate><coordinates>
6.5823751685046,53.22642562757714,0
6.5854064833099,53.22706232762676,0
</coordinates></LineString></Placemark>
<Placemark>
<Style><LineStyle><width>2.513369576696553</width></LineStyle></Style>
<LineString><tessellate>1</tessellate><coordinates>
6.5846522703594,53.22388294052536,0
6.5846522703594,53.22388294052536,0
</coordinates></LineString></Placemark>
<Placemark>
<Style><LineStyle><width>2.513369576696553</width></LineStyle></Style>
<LineString><tessellate>1</tessellate><coordinates>
6.5846522703594,53.22388294052536,0
6.5838938707500505,53.22420064110595,0
</coordinates></LineString></Placemark>
<Placemark>
<Style><LineStyle><width>2.513369576696553</width></LineStyle></Style>
<LineString><tessellate>1</tessellate><coordinates>
6.5838938707500505,53.22420064110595,0
6.583514861248051,53.22420053286525,0
</coordinates></LineString></Placemark>
<Placemark>
<Style><LineStyle><width>2.513369576696553</width></LineStyle></Style>
<LineString><tessellate>1</tessellate><coordinates>
6.583514861248051,53.22420053286525,0
6.5831354711407,53.22451834168655,0
</coordinates></LineString></Placemark>
<Placemark>
<Style><LineStyle><width>2.513369576696553</width></LineStyle></Style>
<LineString><tessellate>1</tessellate><coordinates>
6.5831354711407,53.22451834168655,0
6.581997300818651,53.22547176815044,0
</coordinates></LineString></Placemark>
<Placemark>
<Style><LineStyle><width>2.513369576696553</width></LineStyle></Style>
<LineString><tessellate>1</tessellate><coordinates>
6.581997300818651,53.22547176815044,0
6.582755319822651,53.225471984631845,0
</coordinates></LineString></Placemark>
<Placemark>
<Style><LineStyle><width>2.513369576696553</width></LineStyle></Style>
<LineString><tessellate>1</tessellate><coordinates>
6.582755319822651,53.225471984631845,0
6.58313470993,53.225154175810545,0
</coordinates></LineString></Placemark>
<Placemark>
<Style><LineStyle><width>2.513369576696553</width></LineStyle></Style>
<LineString><tessellate>1</tessellate><coordinates>
6.58313470993,53.225154175810545,0
6.5846522703594,53.22388294052536,0
</coordinates></LineString></Placemark>
<Placemark>
<Style><LineStyle><width>2.631729774968467</width></LineStyle></Style>
<LineString><tessellate>1</tessellate><coordinates>
6.583059631071686,53.22623450894859,0
6.58291646953429,53.225875783620374,0
</coordinates></LineString></Placemark>
<Placemark>
<Style><LineStyle><width>2.631729774968467</width></LineStyle></Style>
<LineString><tessellate>1</tessellate><coordinates>
6.58291646953429,53.225875783620374,0
6.582755319822651,53.225471984631845,0
</coordinates></LineString></Placemark>
<Placemark>
<Style><LineStyle><width>3.3197422879019145</width></LineStyle></Style>
<LineString><tessellate>1</tessellate><coordinates>
6.579335099776251,53.23310101995352,0
6.579335099776251,53.23310101995352,0
</coordinates></LineString></Placemark>
<Placemark>
<Style><LineStyle><width>3.3197422879019145</width></LineStyle></Style>
<LineString><tessellate>1</tessellate><coordinates>
6.579335099776251,53.23310101995352,0
6.58123014728625,53.233101561157035,0
</coordinates></LineString></Placemark>
<Placemark>
<Style><LineStyle><width>3.3197422879019145</width></LineStyle></Style>
<LineString><tessellate>1</tessellate><coordinates>
6.58123014728625,53.233101561157035,0
6.5816125822364,53.23024041583974,0
</coordinates></LineString></Placemark>
<Placemark>
<Style><LineStyle><width>3.3197422879019145</width></LineStyle></Style>
<LineString><tessellate>1</tessellate><coordinates>
6.5816125822364,53.23024041583974,0
6.580854943837751,53.22992228229633,0
</coordinates></LineString></Placemark>
<Placemark>
<Style><LineStyle><width>3.3197422879019145</width></LineStyle></Style>
<LineString><tessellate>1</tessellate><coordinates>
6.580854943837751,53.22992228229633,0
6.580475173125051,53.230558008179635,0
</coordinates></LineString></Placemark>
<Placemark>
<Style><LineStyle><width>3.3197422879019145</width></LineStyle></Style>
<LineString><tessellate>1</tessellate><coordinates>
6.580475173125051,53.230558008179635,0
6.579337002803,53.23151143464352,0
</coordinates></LineString></Placemark>
<Placemark>
<Style><LineStyle><width>3.3197422879019145</width></LineStyle></Style>
<LineString><tessellate>1</tessellate><coordinates>
6.579337002803,53.23151143464352,0
6.57743852984485,53.23437214699802,0
</coordinates></LineString></Placemark>
<Placemark>
<Style><LineStyle><width>3.3197422879019145</width></LineStyle></Style>
<LineString><tessellate>1</tessellate><coordinates>
6.57743852984485,53.23437214699802,0
6.579335099776251,53.23310101995352,0
</coordinates></LineString></Placemark>
<Placemark>
<Style><LineStyle><width>3.4081552766053904</width></LineStyle></Style>
<LineString><tessellate>1</tessellate><coordinates>
6.583885878037701,53.23087689940795,0
6.583885878037701,53.23087689940795,0
</coordinates></LineString></Placemark>
<Placemark>
<Style><LineStyle><width>3.4081552766053904</width></LineStyle></Style>
<LineString><tessellate>1</tessellate><coordinates>
6.583885878037701,53.23087689940795,0
6.5827492301370505,53.230558657623845,0
</coordinates></LineString></Placemark>
<Placemark>
<Style><LineStyle><width>3.4081552766053904</width></LineStyle></Style>
<LineString><tessellate>1</tessellate><coordinates>
6.5827492301370505,53.230558657623845,0
6.581991591738401,53.230240524080436,0
</coordinates></LineString></Placemark>
<Placemark>
<Style><LineStyle><width>3.4081552766053904</width></LineStyle></Style>
<LineString><tessellate>1</tessellate><coordinates>
6.581991591738401,53.230240524080436,0
6.586160696260401,53.23024171472816,0
</coordinates></LineString></Placemark>
<Placemark>
<Style><LineStyle><width>3.4081552766053904</width></LineStyle></Style>
<LineString><tessellate>1</tessellate><coordinates>
6.586160696260401,53.23024171472816,0
6.583885878037701,53.23087689940795,0
</coordinates></LineString></Placemark>
<Placemark>
<Style><LineStyle><width>3.4081552766053904</width></LineStyle></Style>
<LineString><tessellate>1</tessellate><coordinates>
6.5816125822364,53.23024041583974,0
6.581810458875228,53.230240472351,0
</coordinates></LineString></Placemark>
<Placemark>
<Style><LineStyle><width>3.4081552766053904</width></LineStyle></Style>
<LineString><tessellate>1</tessellate><coordinates>
6.581810458875228,53.230240472351,0
6.581991591738401,53.230240524080436,0
</coordinates></LineString></Placemark>
<Placemark>
<Style><LineStyle><width>4.047990703972781</width></LineStyle></Style>
<LineString><tessellate>1</tessellate><coordinates>
6.570635389076351,53.21847434556538,0
6.570635389076351,53.21847434556538,0
</coordinates></LineString></Placemark>
<Placemark>
<Style><LineStyle><width>4.047990703972781</width></LineStyle></Style>
<LineString><tessellate>1</tessellate><coordinates>
6.570635389076351,53.21847434556538,0
6.571014017973001,53.21879237086808,0
</coordinates></LineString></Placemark>
<Placemark>
<Style><LineStyle><width>4.047990703972781</width></LineStyle></Style>
<LineString><tessellate>1</tessellate><coordinates>
6.571014017973001,53.21879237086808,0
6.571013256762301,53.21942820499208,0
</coordinates></LineString></Placemark>
<Placemark>
<Style><LineStyle><width>4.047990703972781</width></LineStyle></Style>
<LineString><tessellate>1</tessellate><coordinates>
6.571013256762301,53.21942820499208,0
6.57177013395025,53.22038217265949,0
</coordinates></LineString></Placemark>
<Placemark>
<Style><LineStyle><width>4.047990703972781</width></LineStyle></Style>
<LineString><tessellate>1</tessellate><coordinates>
6.57177013395025,53.22038217265949,0
6.5717712757663005,53.21942842147349,0
</coordinates></LineString></Placemark>
<Placemark>
<Style><LineStyle><width>4.047990703972781</width></LineStyle></Style>
<LineString><tessellate>1</tessellate><coordinates>
6.5717712757663005,53.21942842147349,0
6.571014779183701,53.218156536744075,0
</coordinates></LineString></Placemark>
<Placemark>
<Style><LineStyle><width>4.047990703972781</width></LineStyle></Style>
<LineString><tessellate>1</tessellate><coordinates>
6.571014779183701,53.218156536744075,0
6.570635389076351,53.21847434556538,0
</coordinates></LineString></Placemark>
<Placemark>
<Style><LineStyle><width>3.2994916591040973</width></LineStyle></Style>
<LineString><tessellate>1</tessellate><coordinates>
6.573664420249551,53.22101854798699,0
6.573664420249551,53.22101854798699,0
</coordinates></LineString></Placemark>
<Placemark>
<Style><LineStyle><width>3.2994916591040973</width></LineStyle></Style>
<LineString><tessellate>1</tessellate><coordinates>
6.573664420249551,53.22101854798699,0
6.573664800854901,53.220700630924995,0
</coordinates></LineString></Placemark>
<Placemark>
<Style><LineStyle><width>3.2994916591040973</width></LineStyle></Style>
<LineString><tessellate>1</tessellate><coordinates>
6.573664800854901,53.220700630924995,0
6.574425103491,53.2187933450344,0
</coordinates></LineString></Placemark>
<Placemark>
<Style><LineStyle><width>3.2994916591040973</width></LineStyle></Style>
<LineString><tessellate>1</tessellate><coordinates>
6.574425103491,53.2187933450344,0
6.573666703881651,53.219111045614994,0
</coordinates></LineString></Placemark>
<Placemark>
<Style><LineStyle><width>3.2994916591040973</width></LineStyle></Style>
<LineString><tessellate>1</tessellate><coordinates>
6.573666703881651,53.219111045614994,0
6.573666323276301,53.21942896267699,0
</coordinates></LineString></Placemark>
<Placemark>
<Style><LineStyle><width>3.2994916591040973</width></LineStyle></Style>
<LineString><tessellate>1</tessellate><coordinates>
6.573666323276301,53.21942896267699,0
6.57290716245625,53.22038249738159,0
</coordinates></LineString></Placemark>
<Placemark>
<Style><LineStyle><width>3.2994916591040973</width></LineStyle></Style>
<LineString><tessellate>1</tessellate><coordinates>
6.57290716245625,53.22038249738159,0
6.573664420249551,53.22101854798699,0
</coordinates></LineString></Placemark>
<Placemark>
<Style><LineStyle><width>4.047990703972781</width></LineStyle></Style>
<LineString><tessellate>1</tessellate><coordinates>
6.57177013395025,53.22038217265949,0
6.572135288881188,53.22038227694348,0
</coordinates></LineString></Placemark>
<Placemark>
<Style><LineStyle><width>4.047990703972781</width></LineStyle></Style>
<LineString><tessellate>1</tessellate><coordinates>
6.572135288881188,53.22038227694348,0
6.57290716245625,53.22038249738159,0
</coordinates></LineString></Placemark>
<Placemark>
<Style><LineStyle><width>3.9285198448196663</width></LineStyle></Style>
<LineString><tessellate>1</tessellate><coordinates>
6.5630593856952,53.214975093069334,0
6.5630593856952,53.214975093069334,0
</coordinates></LineString></Placemark>
<Placemark>
<Style><LineStyle><width>3.9285198448196663</width></LineStyle></Style>
<LineString><tessellate>1</tessellate><coordinates>
6.5630593856952,53.214975093069334,0
6.5638181659099,53.21433947542674,0
</coordinates></LineString></Placemark>
<Placemark>
<Style><LineStyle><width>3.9285198448196663</width></LineStyle></Style>
<LineString><tessellate>1</tessellate><coordinates>
6.5638181659099,53.21433947542674,0
6.5638181659099,53.21433947542674,0
</coordinates></LineString></Placemark>
<Placemark>
<Style><LineStyle><width>3.9285198448196663</width></LineStyle></Style>
<LineString><tessellate>1</tessellate><coordinates>
6.5638181659099,53.21433947542674,0
6.5657124522092,53.21497585075425,0
</coordinates></LineString></Placemark>
<Placemark>
<Style><LineStyle><width>3.9285198448196663</width></LineStyle></Style>
<LineString><tessellate>1</tessellate><coordinates>
6.5657124522092,53.21497585075425,0
6.5672273484011505,53.21593003490306,0
</coordinates></LineString></Placemark>
<Placemark>
<Style><LineStyle><width>3.9285198448196663</width></LineStyle></Style>
<LineString><tessellate>1</tessellate><coordinates>
6.5672273484011505,53.21593003490306,0
6.5657116909985005,53.215611684878255,0
</coordinates></LineString></Placemark>
<Placemark>
<Style><LineStyle><width>3.9285198448196663</width></LineStyle></Style>
<LineString><tessellate>1</tessellate><coordinates>
6.5657116909985005,53.215611684878255,0
6.5649536719945,53.21561146839685,0
</coordinates></LineString></Placemark>
<Placemark>
<Style><LineStyle><width>3.9285198448196663</width></LineStyle></Style>
<LineString><tessellate>1</tessellate><coordinates>
6.5649536719945,53.21561146839685,0
6.5641960335958505,53.21529333485345,0
</coordinates></LineString></Placemark>
<Placemark>
<Style><LineStyle><width>3.9285198448196663</width></LineStyle></Style>
<LineString><tessellate>1</tessellate><coordinates>
6.5641960335958505,53.21529333485345,0
6.5630593856952,53.214975093069334,0
</coordinates></LineString></Placemark>
<Placemark>
<Style><LineStyle><width>4.195871652384215</width></LineStyle></Style>
<LineString><tessellate>1</tessellate><coordinates>
6.56874414761985,53.21529463374187,0
6.56874414761985,53.21529463374187,0
</coordinates></LineString></Placemark>
<Placemark>
<Style><LineStyle><width>4.195871652384215</width></LineStyle></Style>
<LineString><tessellate>1</tessellate><coordinates>
6.56874414761985,53.21529463374187,0
6.56912391833255,53.21465890785857,0
</coordinates></LineString></Placemark>
<Placemark>
<Style><LineStyle><width>4.195871652384215</width></LineStyle></Style>
<LineString><tessellate>1</tessellate><coordinates>
6.56912391833255,53.21465890785857,0
6.5683662799339,53.21434077431517,0
</coordinates></LineString></Placemark>
<Placemark>
<Style><LineStyle><width>4.195871652384215</width></LineStyle></Style>
<LineString><tessellate>1</tessellate><coordinates>
6.5683662799339,53.21434077431517,0
6.5679872704319004,53.21434066607446,0
</coordinates></LineString></Placemark>
<Placemark>
<Style><LineStyle><width>4.195871652384215</width></LineStyle></Style>
<LineString><tessellate>1</tessellate><coordinates>
6.5679872704319004,53.21434066607446,0
6.5672292514279,53.21434044959306,0
</coordinates></LineString></Placemark>
<Placemark>
<Style><LineStyle><width>4.195871652384215</width></LineStyle></Style>
<LineString><tessellate>1</tessellate><coordinates>
6.5672292514279,53.21434044959306,0
6.56722963203325,53.21402253253106,0
</coordinates></LineString></Placemark>
<Placemark>
<Style><LineStyle><width>4.195871652384215</width></LineStyle></Style>
<LineString><tessellate>1</tessellate><coordinates>
6.56722963203325,53.21402253253106,0
6.566851003136601,53.213704507228364,0
</coordinates></LineString></Placemark>
<Placemark>
<Style><LineStyle><width>4.195871652384215</width></LineStyle></Style>
<LineString><tessellate>1</tessellate><coordinates>
6.566851003136601,53.213704507228364,0
6.56761016395665,53.212750972523764,0
</coordinates></LineString></Placemark>
<Placemark>
<Style><LineStyle><width>4.195871652384215</width></LineStyle></Style>
<LineString><tessellate>1</tessellate><coordinates>
6.56761016395665,53.212750972523764,0
6.565714735841301,53.21306834838225,0
</coordinates></LineString></Placemark>
<Placemark>
<Style><LineStyle><width>4.195871652384215</width></LineStyle></Style>
<LineString><tessellate>1</tessellate><coordinates>
6.565714735841301,53.21306834838225,0
6.56647161302925,53.21402231604966,0
</coordinates></LineString></Placemark>
<Placemark>
<Style><LineStyle><width>4.195871652384215</width></LineStyle></Style>
<LineString><tessellate>1</tessellate><coordinates>
6.56647161302925,53.21402231604966,0
6.5664712324239005,53.214340233111656,0
</coordinates></LineString></Placemark>
<Placemark>
<Style><LineStyle><width>4.195871652384215</width></LineStyle></Style>
<LineString><tessellate>1</tessellate><coordinates>
6.5664712324239005,53.214340233111656,0
6.56722810961185,53.21529420077906,0
</coordinates></LineString></Placemark>
<Placemark>
<Style><LineStyle><width>4.195871652384215</width></LineStyle></Style>
<LineString><tessellate>1</tessellate><coordinates>
6.56722810961185,53.21529420077906,0
6.56874414761985,53.21529463374187,0
</coordinates></LineString></Placemark>
<Placemark>
<Style><LineStyle><width>4.195871652384215</width></LineStyle></Style>
<LineString><tessellate>1</tessellate><coordinates>
6.566862906616463,53.21570048479951,0
6.567069773172371,53.215470348197705,0
</coordinates></LineString></Placemark>
<Placemark>
<Style><LineStyle><width>4.195871652384215</width></LineStyle></Style>
<LineString><tessellate>1</tessellate><coordinates>
6.567069773172371,53.215470348197705,0
6.56722810961185,53.21529420077906,0
</coordinates></LineString></Placemark>
<Placemark>
<Style><LineStyle><width>3.870240456181209</width></LineStyle></Style>
<LineString><tessellate>1</tessellate><coordinates>
6.5748079190465,53.2156142826551,0
6.5748079190465,53.2156142826551,0
</coordinates></LineString></Placemark>
<Placemark>
<Style><LineStyle><width>3.870240456181209</width></LineStyle></Style>
<LineString><tessellate>1</tessellate><coordinates>
6.5748079190465,53.2156142826551,0
6.57480829965185,53.215296365593105,0
</coordinates></LineString></Placemark>
<Placemark>
<Style><LineStyle><width>3.870240456181209</width></LineStyle></Style>
<LineString><tessellate>1</tessellate><coordinates>
6.57480829965185,53.215296365593105,0
6.5740502806478505,53.2152961491117,0
</coordinates></LineString></Placemark>
<Placemark>
<Style><LineStyle><width>3.870240456181209</width></LineStyle></Style>
<LineString><tessellate>1</tessellate><coordinates>
6.5740502806478505,53.2152961491117,0
6.572533481429151,53.21593155027289,0
</coordinates></LineString></Placemark>
<Placemark>
<Style><LineStyle><width>3.870240456181209</width></LineStyle></Style>
<LineString><tessellate>1</tessellate><coordinates>
6.572533481429151,53.21593155027289,0
6.57177546242515,53.21593133379149,0
</coordinates></LineString></Placemark>
<Placemark>
<Style><LineStyle><width>3.870240456181209</width></LineStyle></Style>
<LineString><tessellate>1</tessellate><coordinates>
6.57177546242515,53.21593133379149,0
6.572532720218451,53.21656738439689,0
</coordinates></LineString></Placemark>
<Placemark>
<Style><LineStyle><width>3.870240456181209</width></LineStyle></Style>
<LineString><tessellate>1</tessellate><coordinates>
6.572532720218451,53.21656738439689,0
6.57291096850975,53.21720332676159,0
</coordinates></LineString></Placemark>
<Placemark>
<Style><LineStyle><width>3.870240456181209</width></LineStyle></Style>
<LineString><tessellate>1</tessellate><coordinates>
6.57291096850975,53.21720332676159,0
6.5732903586171,53.2168855179403,0
</coordinates></LineString></Placemark>
<Placemark>
<Style><LineStyle><width>3.870240456181209</width></LineStyle></Style>
<LineString><tessellate>1</tessellate><coordinates>
6.5732903586171,53.2168855179403,0
6.573670509935151,53.21593187499499,0
</coordinates></LineString></Placemark>
<Placemark>
<Style><LineStyle><width>3.870240456181209</width></LineStyle></Style>
<LineString><tessellate>1</tessellate><coordinates>
6.573670509935151,53.21593187499499,0
6.5748079190465,53.2156142826551,0
</coordinates></LineString></Placemark>
<Placemark>
<Style><LineStyle><width>4.69367580903582</width></LineStyle></Style>
<LineString><tessellate>1</tessellate><coordinates>
6.569501024807801,53.21624860140927,0
6.569501024807801,53.21624860140927,0
</coordinates></LineString></Placemark>
<Placemark>
<Style><LineStyle><width>4.69367580903582</width></LineStyle></Style>
<LineString><tessellate>1</tessellate><coordinates>
6.569501024807801,53.21624860140927,0
6.569880034309801,53.216248709649975,0
</coordinates></LineString></Placemark>
<Placemark>
<Style><LineStyle><width>4.69367580903582</width></LineStyle></Style>
<LineString><tessellate>1</tessellate><coordinates>
6.569880034309801,53.216248709649975,0
6.5702605662332,53.21497714964267,0
</coordinates></LineString></Placemark>
<Placemark>
<Style><LineStyle><width>4.69367580903582</width></LineStyle></Style>
<LineString><tessellate>1</tessellate><coordinates>
6.5702605662332,53.21497714964267,0
6.571020488263951,53.21338778081408,0
</coordinates></LineString></Placemark>
<Placemark>
<Style><LineStyle><width>4.69367580903582</width></LineStyle></Style>
<LineString><tessellate>1</tessellate><coordinates>
6.571020488263951,53.21338778081408,0
6.57177774605725,53.21402383141949,0
</coordinates></LineString></Placemark>
<Placemark>
<Style><LineStyle><width>4.69367580903582</width></LineStyle></Style>
<LineString><tessellate>1</tessellate><coordinates>
6.57177774605725,53.21402383141949,0
6.57177698484655,53.214659665543486,0
</coordinates></LineString></Placemark>
<Placemark>
<Style><LineStyle><width>4.69367580903582</width></LineStyle></Style>
<LineString><tessellate>1</tessellate><coordinates>
6.57177698484655,53.214659665543486,0
6.5713975947392,53.21497747436478,0
</coordinates></LineString></Placemark>
<Placemark>
<Style><LineStyle><width>4.69367580903582</width></LineStyle></Style>
<LineString><tessellate>1</tessellate><coordinates>
6.5713975947392,53.21497747436478,0
6.571016682210451,53.216566951434075,0
</coordinates></LineString></Placemark>
<Placemark>
<Style><LineStyle><width>4.69367580903582</width></LineStyle></Style>
<LineString><tessellate>1</tessellate><coordinates>
6.571016682210451,53.216566951434075,0
6.571016682210451,53.216566951434075,0
</coordinates></LineString></Placemark>
<Placemark>
<Style><LineStyle><width>4.69367580903582</width></LineStyle></Style>
<LineString><tessellate>1</tessellate><coordinates>
6.571016682210451,53.216566951434075,0
6.5706372921031,53.21688476025538,0
</coordinates></LineString></Placemark>
<Placemark>
<Style><LineStyle><width>4.69367580903582</width></LineStyle></Style>
<LineString><tessellate>1</tessellate><coordinates>
6.5706372921031,53.21688476025538,0
6.56912163470045,53.21656641023057,0
</coordinates></LineString></Placemark>
<Placemark>
<Style><LineStyle><width>4.69367580903582</width></LineStyle></Style>
<LineString><tessellate>1</tessellate><coordinates>
6.56912163470045,53.21656641023057,0
6.569501024807801,53.21624860140927,0
</coordinates></LineString></Placemark>
<Placemark>
<Style><LineStyle><width>4.69367580903582</width></LineStyle></Style>
<LineString><tessellate>1</tessellate><coordinates>
6.57177546242515,53.21593133379149,0
6.5713703149108404,53.21586323881439,0
</coordinates></LineString></Placemark>
<Placemark>
<Style><LineStyle><width>4.69367580903582</width></LineStyle></Style>
<LineString><tessellate>1</tessellate><coordinates>
6.5713703149108404,53.21586323881439,0
6.571192487070556,53.215833350481844,0
</coordinates></LineString></Placemark>
<Placemark>
<Style><LineStyle><width>2.11879581935048</width></LineStyle></Style>
<LineString><tessellate>1</tessellate><coordinates>
6.5793396670404505,53.229286015209524,0
6.5793396670404505,53.229286015209524,0
</coordinates></LineString></Placemark>
<Placemark>
<Style><LineStyle><width>2.11879581935048</width></LineStyle></Style>
<LineString><tessellate>1</tessellate><coordinates>
6.5793396670404505,53.229286015209524,0
6.579340808856501,53.22833226402352,0
</coordinates></LineString></Placemark>
<Placemark>
<Style><LineStyle><width>2.11879581935048</width></LineStyle></Style>
<LineString><tessellate>1</tessellate><coordinates>
6.579340808856501,53.22833226402352,0
6.580479740389251,53.22674300343563,0
</coordinates></LineString></Placemark>
<Placemark>
<Style><LineStyle><width>2.11879581935048</width></LineStyle></Style>
<LineString><tessellate>1</tessellate><coordinates>
6.580479740389251,53.22674300343563,0
6.579341570067201,53.227696429899524,0
</coordinates></LineString></Placemark>
<Placemark>
<Style><LineStyle><width>2.11879581935048</width></LineStyle></Style>
<LineString><tessellate>1</tessellate><coordinates>
6.579341570067201,53.227696429899524,0
6.57896217995985,53.228014238720824,0
</coordinates></LineString></Placemark>
<Placemark>
<Style><LineStyle><width>2.11879581935048</width></LineStyle></Style>
<LineString><tessellate>1</tessellate><coordinates>
6.57896217995985,53.228014238720824,0
6.5793396670404505,53.229286015209524,0
</coordinates></LineString></Placemark>
<Placemark>
<Style><LineStyle><width>1.844349167604034</width></LineStyle></Style>
<LineString><tessellate>1</tessellate><coordinates>
6.5797221019906,53.22642486989223,0
6.5797221019906,53.22642486989223,0
</coordinates></LineString></Placemark>
<Placemark>
<Style><LineStyle><width>1.844349167604034</width></LineStyle></Style>
<LineString><tessellate>1</tessellate><coordinates>
6.5797221019906,53.22642486989223,0
6.5797221019906,53.22642486989223,0
</coordinates></LineString></Placemark>
<Placemark>
<Style><LineStyle><width>1.844349167604034</width></LineStyle></Style>
<LineString><tessellate>1</tessellate><coordinates>
6.5797221019906,53.22642486989223,0
6.580858369285901,53.22706102873833,0
</coordinates></LineString></Placemark>
<Placemark>
<Style><LineStyle><width>1.844349167604034</width></LineStyle></Style>
<LineString><tessellate>1</tessellate><coordinates>
6.580858369285901,53.22706102873833,0
6.5797221019906,53.22642486989223,0
</coordinates></LineString></Placemark>
<Placemark>
<Style><LineStyle><width>2.11879581935048</width></LineStyle></Style>
<LineString><tessellate>1</tessellate><coordinates>
6.580403852757829,53.22680657324999,0
6.5804040137246025,53.226806657572624,0
</coordinates></LineString></Placemark>
<Placemark>
<Style><LineStyle><width>2.11879581935048</width></LineStyle></Style>
<LineString><tessellate>1</tessellate><coordinates>
6.5804040137246025,53.226806657572624,0
6.580404225530171,53.226806768522614,0
</coordinates></LineString></Placemark>
<Placemark>
<Style><LineStyle><width>2.9258794077350414</width></LineStyle></Style>
<LineString><tessellate>1</tessellate><coordinates>
6.56911782864695,53.21974558085057,0
6.56911782864695,53.21974558085057,0
</coordinates></LineString></Placemark>
<Placemark>
<Style><LineStyle><width>2.9258794077350414</width></LineStyle></Style>
<LineString><tessellate>1</tessellate><coordinates>
6.56911782864695,53.21974558085057,0
6.5676014100336,53.22006306494976,0
</coordinates></LineString></Placemark>
<Placemark>
<Style><LineStyle><width>2.9258794077350414</width></LineStyle></Style>
<LineString><tessellate>1</tessellate><coordinates>
6.5676014100336,53.22006306494976,0
6.567223542347651,53.21910920552306,0
</coordinates></LineString></Placemark>
<Placemark>
<Style><LineStyle><width>2.9258794077350414</width></LineStyle></Style>
<LineString><tessellate>1</tessellate><coordinates>
6.567223542347651,53.21910920552306,0
6.565707884945001,53.218790855498256,0
</coordinates></LineString></Placemark>
<Placemark>
<Style><LineStyle><width>2.9258794077350414</width></LineStyle></Style>
<LineString><tessellate>1</tessellate><coordinates>
6.565707884945001,53.218790855498256,0
6.56722506476905,53.21783753727506,0
</coordinates></LineString></Placemark>
<Placemark>
<Style><LineStyle><width>2.9258794077350414</width></LineStyle></Style>
<LineString><tessellate>1</tessellate><coordinates>
6.56722506476905,53.21783753727506,0
6.567982703167701,53.21815567081846,0
</coordinates></LineString></Placemark>
<Placemark>
<Style><LineStyle><width>2.9258794077350414</width></LineStyle></Style>
<LineString><tessellate>1</tessellate><coordinates>
6.567982703167701,53.21815567081846,0
6.56911782864695,53.21974558085057,0
</coordinates></LineString></Placemark>
<Placemark>
<Style><LineStyle><width>2.4798878215125355</width></LineStyle></Style>
<LineString><tessellate>1</tessellate><coordinates>
6.565710549182451,53.21656543606425,0
6.565710549182451,53.21656543606425,0
</coordinates></LineString></Placemark>
<Placemark>
<Style><LineStyle><width>2.4798878215125355</width></LineStyle></Style>
<LineString><tessellate>1</tessellate><coordinates>
6.565710549182451,53.21656543606425,0
6.56533077846975,53.21720116194755,0
</coordinates></LineString></Placemark>
<Placemark>
<Style><LineStyle><width>2.4798878215125355</width></LineStyle></Style>
<LineString><tessellate>1</tessellate><coordinates>
6.56533077846975,53.21720116194755,0
6.5653300172590505,53.21783699607155,0
</coordinates></LineString></Placemark>
<Placemark>
<Style><LineStyle><width>2.4798878215125355</width></LineStyle></Style>
<LineString><tessellate>1</tessellate><coordinates>
6.5653300172590505,53.21783699607155,0
6.56457123704435,53.21847261371415,0
</coordinates></LineString></Placemark>
<Placemark>
<Style><LineStyle><width>2.4798878215125355</width></LineStyle></Style>
<LineString><tessellate>1</tessellate><coordinates>
6.56457123704435,53.21847261371415,0
6.5645731400711,53.21688302840415,0
</coordinates></LineString></Placemark>
<Placemark>
<Style><LineStyle><width>2.4798878215125355</width></LineStyle></Style>
<LineString><tessellate>1</tessellate><coordinates>
6.5645731400711,53.21688302840415,0
6.565710549182451,53.21656543606425,0
</coordinates></LineString></Placemark>
<Placemark>
<Style><LineStyle><width>2.9258794077350414</width></LineStyle></Style>
<LineString><tessellate>1</tessellate><coordinates>
6.565707884945001,53.218790855498256,0
6.565411281150001,53.2185434631581,0
</coordinates></LineString></Placemark>
<Placemark>
<Style><LineStyle><width>2.9258794077350414</width></LineStyle></Style>
<LineString><tessellate>1</tessellate><coordinates>
6.565411281150001,53.2185434631581,0
6.564947974657147,53.21815702684369,0
</coordinates></LineString></Placemark>
<Placemark>
<Style><LineStyle><width>3.049205662856749</width></LineStyle></Style>
<LineString><tessellate>1</tessellate><coordinates>
6.58881642701185,53.22801705297908,0
6.58881642701185,53.22801705297908,0
</coordinates></LineString></Placemark>
<Placemark>
<Style><LineStyle><width>3.049205662856749</width></LineStyle></Style>
<LineString><tessellate>1</tessellate><coordinates>
6.58881642701185,53.22801705297908,0
6.589574446015851,53.22801726946048,0
</coordinates></LineString></Placemark>
<Placemark>
<Style><LineStyle><width>3.049205662856749</width></LineStyle></Style>
<LineString><tessellate>1</tessellate><coordinates>
6.589574446015851,53.22801726946048,0
6.586924424344651,53.22547317527957,0
</coordinates></LineString></Placemark>
<Placemark>
<Style><LineStyle><width>3.049205662856749</width></LineStyle></Style>
<LineString><tessellate>1</tessellate><coordinates>
6.586924424344651,53.22547317527957,0
6.586924804950001,53.22515525821756,0
</coordinates></LineString></Placemark>
<Placemark>
<Style><LineStyle><width>3.049205662856749</width></LineStyle></Style>
<LineString><tessellate>1</tessellate><coordinates>
6.586924804950001,53.22515525821756,0
6.586925185555351,53.22483734115556,0
</coordinates></LineString></Placemark>
<Placemark>
<Style><LineStyle><width>3.049205662856749</width></LineStyle></Style>
<LineString><tessellate>1</tessellate><coordinates>
6.586925185555351,53.22483734115556,0
6.5857877764440005,53.22515493349545,0
</coordinates></LineString></Placemark>
<Placemark>
<Style><LineStyle><width>3.049205662856749</width></LineStyle></Style>
<LineString><tessellate>1</tessellate><coordinates>
6.5857877764440005,53.22515493349545,0
6.5854080057313,53.22579065937876,0
</coordinates></LineString></Placemark>
<Placemark>
<Style><LineStyle><width>3.049205662856749</width></LineStyle></Style>
<LineString><tessellate>1</tessellate><coordinates>
6.5854080057313,53.22579065937876,0
6.5857870152333,53.22579076761946,0
</coordinates></LineString></Placemark>
<Placemark>
<Style><LineStyle><width>3.049205662856749</width></LineStyle></Style>
<LineString><tessellate>1</tessellate><coordinates>
6.5857870152333,53.22579076761946,0
6.58578663462795,53.226108684681456,0
</coordinates></LineString></Placemark>
<Placemark>
<Style><LineStyle><width>3.049205662856749</width></LineStyle></Style>
<LineString><tessellate>1</tessellate><coordinates>
6.58578663462795,53.226108684681456,0
6.588058788613201,53.227698919435674,0
</coordinates></LineString></Placemark>
<Placemark>
<Style><LineStyle><width>3.049205662856749</width></LineStyle></Style>
<LineString><tessellate>1</tessellate><coordinates>
6.588058788613201,53.227698919435674,0
6.58881642701185,53.22801705297908,0
</coordinates></LineString></Placemark>
<Placemark>
<Style><LineStyle><width>3.2607503823057034</width></LineStyle></Style>
<LineString><tessellate>1</tessellate><coordinates>
6.5857900600761,53.223247431123454,0
6.5857900600761,53.223247431123454,0
</coordinates></LineString></Placemark>
<Placemark>
<Style><LineStyle><width>3.2607503823057034</width></LineStyle></Style>
<LineString><tessellate>1</tessellate><coordinates>
6.5857900600761,53.223247431123454,0
6.586168688972751,53.22356545642616,0
</coordinates></LineString></Placemark>
<Placemark>
<Style><LineStyle><width>3.2607503823057034</width></LineStyle></Style>
<LineString><tessellate>1</tessellate><coordinates>
6.586168688972751,53.22356545642616,0
6.585409147547351,53.224836908192756,0
</coordinates></LineString></Placemark>
<Placemark>
<Style><LineStyle><width>3.2607503823057034</width></LineStyle></Style>
<LineString><tessellate>1</tessellate><coordinates>
6.585409147547351,53.224836908192756,0
6.5869255661607005,53.224519424093565,0
</coordinates></LineString></Placemark>
<Placemark>
<Style><LineStyle><width>3.2607503823057034</width></LineStyle></Style>
<LineString><tessellate>1</tessellate><coordinates>
6.5869255661607005,53.224519424093565,0
6.5869263273714,53.22388358996957,0
</coordinates></LineString></Placemark>
<Placemark>
<Style><LineStyle><width>3.2607503823057034</width></LineStyle></Style>
<LineString><tessellate>1</tessellate><coordinates>
6.5869263273714,53.22388358996957,0
6.58730495626805,53.22420161527227,0
</coordinates></LineString></Placemark>
<Placemark>
<Style><LineStyle><width>3.2607503823057034</width></LineStyle></Style>
<LineString><tessellate>1</tessellate><coordinates>
6.58730495626805,53.22420161527227,0
6.59147406079005,53.224202805919994,0
</coordinates></LineString></Placemark>
<Placemark>
<Style><LineStyle><width>3.2607503823057034</width></LineStyle></Style>
<LineString><tessellate>1</tessellate><coordinates>
6.59147406079005,53.224202805919994,0
6.5873060980841,53.22324786408627,0
</coordinates></LineString></Placemark>
<Placemark>
<Style><LineStyle><width>3.2607503823057034</width></LineStyle></Style>
<LineString><tessellate>1</tessellate><coordinates>
6.5873060980841,53.22324786408627,0
6.58692746918745,53.222929838783564,0
</coordinates></LineString></Placemark>
<Placemark>
<Style><LineStyle><width>3.2607503823057034</width></LineStyle></Style>
<LineString><tessellate>1</tessellate><coordinates>
6.58692746918745,53.222929838783564,0
6.586170591999501,53.221975871116165,0
</coordinates></LineString></Placemark>
<Placemark>
<Style><LineStyle><width>3.2607503823057034</width></LineStyle></Style>
<LineString><tessellate>1</tessellate><coordinates>
6.586170591999501,53.221975871116165,0
6.5857900600761,53.223247431123454,0
</coordinates></LineString></Placemark>
<Placemark>
<Style><LineStyle><width>3.2607503823057034</width></LineStyle></Style>
<LineString><tessellate>1</tessellate><coordinates>
6.586925185555351,53.22483734115556,0
6.586877027181427,53.224671758320504,0
</coordinates></LineString></Placemark>
<Placemark>
<Style><LineStyle><width>3.2607503823057034</width></LineStyle></Style>
<LineString><tessellate>1</tessellate><coordinates>
6.586877027181427,53.224671758320504,0
6.58683805101533,53.22453774665018,0
</coordinates></LineString></Placemark>
<Placemark>
<Style><LineStyle><width>3.416742401990051</width></LineStyle></Style>
<LineString><tessellate>1</tessellate><coordinates>
6.5604002294956,53.22006100837642,0
6.5604002294956,53.22006100837642,0
</coordinates></LineString></Placemark>
<Placemark>
<Style><LineStyle><width>3.416742401990051</width></LineStyle></Style>
<LineString><tessellate>1</tessellate><coordinates>
6.5604002294956,53.22006100837642,0
6.561538019212301,53.21942549897453,0
</coordinates></LineString></Placemark>
<Placemark>
<Style><LineStyle><width>3.416742401990051</width></LineStyle></Style>
<LineString><tessellate>1</tessellate><coordinates>
6.561538019212301,53.21942549897453,0
6.5622948964002505,53.22037946664194,0
</coordinates></LineString></Placemark>
<Placemark>
<Style><LineStyle><width>3.416742401990051</width></LineStyle></Style>
<LineString><tessellate>1</tessellate><coordinates>
6.5622948964002505,53.22037946664194,0
6.5619155062929,53.22069727546324,0
</coordinates></LineString></Placemark>
<Placemark>
<Style><LineStyle><width>3.416742401990051</width></LineStyle></Style>
<LineString><tessellate>1</tessellate><coordinates>
6.5619155062929,53.22069727546324,0
6.5619155062929,53.22069727546324,0
</coordinates></LineString></Placemark>
<Placemark>
<Style><LineStyle><width>3.416742401990051</width></LineStyle></Style>
<LineString><tessellate>1</tessellate><coordinates>
6.5619155062929,53.22069727546324,0
6.56153611618555,53.22101508428453,0
</coordinates></LineString></Placemark>
<Placemark>
<Style><LineStyle><width>3.416742401990051</width></LineStyle></Style>
<LineString><tessellate>1</tessellate><coordinates>
6.56153611618555,53.22101508428453,0
6.560777716576201,53.221332784865126,0
</coordinates></LineString></Placemark>
<Placemark>
<Style><LineStyle><width>3.416742401990051</width></LineStyle></Style>
<LineString><tessellate>1</tessellate><coordinates>
6.560777716576201,53.221332784865126,0
6.56115786789425,53.220379141919835,0
</coordinates></LineString></Placemark>
<Placemark>
<Style><LineStyle><width>3.416742401990051</width></LineStyle></Style>
<LineString><tessellate>1</tessellate><coordinates>
6.56115786789425,53.220379141919835,0
6.5604002294956,53.22006100837642,0
</coordinates></LineString></Placemark>
<Placemark>
<Style><LineStyle><width>3.551252682002028</width></LineStyle></Style>
<LineString><tessellate>1</tessellate><coordinates>
6.56494644049285,53.22165189257485,0
6.56494644049285,53.22165189257485,0
</coordinates></LineString></Placemark>
<Placemark>
<Style><LineStyle><width>3.551252682002028</width></LineStyle></Style>
<LineString><tessellate>1</tessellate><coordinates>
6.56494644049285,53.22165189257485,0
6.5645678115962,53.22133386727214,0
</coordinates></LineString></Placemark>
<Placemark>
<Style><LineStyle><width>3.551252682002028</width></LineStyle></Style>
<LineString><tessellate>1</tessellate><coordinates>
6.5645678115962,53.22133386727214,0
6.563809792592201,53.22133365079074,0
</coordinates></LineString></Placemark>
<Placemark>
<Style><LineStyle><width>3.551252682002028</width></LineStyle></Style>
<LineString><tessellate>1</tessellate><coordinates>
6.563809792592201,53.22133365079074,0
6.563810173197551,53.22101573372874,0
</coordinates></LineString></Placemark>
<Placemark>
<Style><LineStyle><width>3.551252682002028</width></LineStyle></Style>
<LineString><tessellate>1</tessellate><coordinates>
6.563810173197551,53.22101573372874,0
6.5638109344082505,53.220379899604744,0
</coordinates></LineString></Placemark>
<Placemark>
<Style><LineStyle><width>3.551252682002028</width></LineStyle></Style>
<LineString><tessellate>1</tessellate><coordinates>
6.5638109344082505,53.220379899604744,0
6.56494796291425,53.22038022432685,0
</coordinates></LineString></Placemark>
<Placemark>
<Style><LineStyle><width>3.551252682002028</width></LineStyle></Style>
<LineString><tessellate>1</tessellate><coordinates>
6.56494796291425,53.22038022432685,0
6.5657063625236,53.22006252374625,0
</coordinates></LineString></Placemark>
<Placemark>
<Style><LineStyle><width>3.551252682002028</width></LineStyle></Style>
<LineString><tessellate>1</tessellate><coordinates>
6.5657063625236,53.22006252374625,0
6.5657056013129,53.220698357870255,0
</coordinates></LineString></Placemark>
<Placemark>
<Style><LineStyle><width>3.551252682002028</width></LineStyle></Style>
<LineString><tessellate>1</tessellate><coordinates>
6.5657056013129,53.220698357870255,0
6.5649475823089,53.22069814138885,0
</coordinates></LineString></Placemark>
<Placemark>
<Style><LineStyle><width>3.551252682002028</width></LineStyle></Style>
<LineString><tessellate>1</tessellate><coordinates>
6.5649475823089,53.22069814138885,0
6.56494720170355,53.22101605845085,0
</coordinates></LineString></Placemark>
<Placemark>
<Style><LineStyle><width>3.551252682002028</width></LineStyle></Style>
<LineString><tessellate>1</tessellate><coordinates>
6.56494720170355,53.22101605845085,0
6.56494644049285,53.22165189257485,0
</coordinates></LineString></Placemark>
<Placemark>
<Style><LineStyle><width>3.551252682002028</width></LineStyle></Style>
<LineString><tessellate>1</tessellate><coordinates>
6.5622948964002505,53.22037946664194,0
6.563103819351803,53.22037969766092,0
</coordinates></LineString></Placemark>
<Placemark>
<Style><LineStyle><width>3.551252682002028</width></LineStyle></Style>
<LineString><tessellate>1</tessellate><coordinates>
6.563103819351803,53.22037969766092,0
6.5638109344082505,53.220379899604744,0
</coordinates></LineString></Placemark>
<Placemark>
<Style><LineStyle><width>2.85282872025799</width></LineStyle></Style>
<LineString><tessellate>1</tessellate><coordinates>
6.57820948943075,53.22356318337142,0
6.57820948943075,53.22356318337142,0
</coordinates></LineString></Placemark>
<Placemark>
<Style><LineStyle><width>2.85282872025799</width></LineStyle></Style>
<LineString><tessellate>1</tessellate><coordinates>
6.57820948943075,53.22356318337142,0
6.5782091088254,53.223881100433424,0
</coordinates></LineString></Placemark>
<Placemark>
<Style><LineStyle><width>2.85282872025799</width></LineStyle></Style>
<LineString><tessellate>1</tessellate><coordinates>
6.5782091088254,53.223881100433424,0
6.5763113970779505,53.22610597866391,0
</coordinates></LineString></Placemark>
<Placemark>
<Style><LineStyle><width>2.85282872025799</width></LineStyle></Style>
<LineString><tessellate>1</tessellate><coordinates>
6.5763113970779505,53.22610597866391,0
6.57365833056395,53.226105220978994,0
</coordinates></LineString></Placemark>
<Placemark>
<Style><LineStyle><width>2.85282872025799</width></LineStyle></Style>
<LineString><tessellate>1</tessellate><coordinates>
6.57365833056395,53.226105220978994,0
6.575175510388001,53.2251519027558,0
</coordinates></LineString></Placemark>
<Placemark>
<Style><LineStyle><width>2.85282872025799</width></LineStyle></Style>
<LineString><tessellate>1</tessellate><coordinates>
6.575175510388001,53.2251519027558,0
6.576692690212051,53.224198584532616,0
</coordinates></LineString></Placemark>
<Placemark>
<Style><LineStyle><width>2.85282872025799</width></LineStyle></Style>
<LineString><tessellate>1</tessellate><coordinates>
6.576692690212051,53.224198584532616,0
6.57820948943075,53.22356318337142,0
</coordinates></LineString></Placemark>
<Placemark>
<Style><LineStyle><width>3.2636891299007686</width></LineStyle></Style>
<LineString><tessellate>1</tessellate><coordinates>
6.57289878913855,53.22737667274559,0
6.57289878913855,53.22737667274559,0
</coordinates></LineString></Placemark>
<Placemark>
<Style><LineStyle><width>3.2636891299007686</width></LineStyle></Style>
<LineString><tessellate>1</tessellate><coordinates>
6.57289878913855,53.22737667274559,0
6.573656427537201,53.227694806288994,0
</coordinates></LineString></Placemark>
<Placemark>
<Style><LineStyle><width>3.2636891299007686</width></LineStyle></Style>
<LineString><tessellate>1</tessellate><coordinates>
6.573656427537201,53.227694806288994,0
6.57479383664855,53.227377213949104,0
</coordinates></LineString></Placemark>
<Placemark>
<Style><LineStyle><width>3.2636891299007686</width></LineStyle></Style>
<LineString><tessellate>1</tessellate><coordinates>
6.57479383664855,53.227377213949104,0
6.576688884158551,53.22737775515262,0
</coordinates></LineString></Placemark>
<Placemark>
<Style><LineStyle><width>3.2636891299007686</width></LineStyle></Style>
<LineString><tessellate>1</tessellate><coordinates>
6.576688884158551,53.22737775515262,0
6.577067132449851,53.22801369751731,0
</coordinates></LineString></Placemark>
<Placemark>
<Style><LineStyle><width>3.2636891299007686</width></LineStyle></Style>
<LineString><tessellate>1</tessellate><coordinates>
6.577067132449851,53.22801369751731,0
6.5759301039438505,53.2280133727952,0
</coordinates></LineString></Placemark>
<Placemark>
<Style><LineStyle><width>3.2636891299007686</width></LineStyle></Style>
<LineString><tessellate>1</tessellate><coordinates>
6.5759301039438505,53.2280133727952,0
6.57517132372915,53.2286489904378,0
</coordinates></LineString></Placemark>
<Placemark>
<Style><LineStyle><width>3.2636891299007686</width></LineStyle></Style>
<LineString><tessellate>1</tessellate><coordinates>
6.57517132372915,53.2286489904378,0
6.573656046931851,53.22801272335099,0
</coordinates></LineString></Placemark>
<Placemark>
<Style><LineStyle><width>3.2636891299007686</width></LineStyle></Style>
<LineString><tessellate>1</tessellate><coordinates>
6.573656046931851,53.22801272335099,0
6.57289878913855,53.22737667274559,0
</coordinates></LineString></Placemark>
<Placemark>
<Style><LineStyle><width>3.2636891299007686</width></LineStyle></Style>
<LineString><tessellate>1</tessellate><coordinates>
6.5763113970779505,53.22610597866391,0
6.576312107253123,53.22687062583186,0
</coordinates></LineString></Placemark>
<Placemark>
<Style><LineStyle><width>3.2636891299007686</width></LineStyle></Style>
<LineString><tessellate>1</tessellate><coordinates>
6.576312107253123,53.22687062583186,0
6.576312578157859,53.227377647684,0
</coordinates></LineString></Placemark>
<Placemark>
<Style><LineStyle><width>3.348397004476317</width></LineStyle></Style>
<LineString><tessellate>1</tessellate><coordinates>
6.565317837887851,53.22801034205555,0
6.565317837887851,53.22801034205555,0
</coordinates></LineString></Placemark>
<Placemark>
<Style><LineStyle><width>3.348397004476317</width></LineStyle></Style>
<LineString><tessellate>1</tessellate><coordinates>
6.565317837887851,53.22801034205555,0
6.5668353983172505,53.22673910677036,0
</coordinates></LineString></Placemark>
<Placemark>
<Style><LineStyle><width>3.348397004476317</width></LineStyle></Style>
<LineString><tessellate>1</tessellate><coordinates>
6.5668353983172505,53.22673910677036,0
6.5660777599186,53.22642097322696,0
</coordinates></LineString></Placemark>
<Placemark>
<Style><LineStyle><width>3.348397004476317</width></LineStyle></Style>
<LineString><tessellate>1</tessellate><coordinates>
6.5660777599186,53.22642097322696,0
6.565319360309251,53.226738673807546,0
</coordinates></LineString></Placemark>
<Placemark>
<Style><LineStyle><width>3.348397004476317</width></LineStyle></Style>
<LineString><tessellate>1</tessellate><coordinates>
6.565319360309251,53.226738673807546,0
6.5649407314126,53.22642064850485,0
</coordinates></LineString></Placemark>
<Placemark>
<Style><LineStyle><width>3.348397004476317</width></LineStyle></Style>
<LineString><tessellate>1</tessellate><coordinates>
6.5649407314126,53.22642064850485,0
6.56380408351195,53.22610240672074,0
</coordinates></LineString></Placemark>
<Placemark>
<Style><LineStyle><width>3.348397004476317</width></LineStyle></Style>
<LineString><tessellate>1</tessellate><coordinates>
6.56380408351195,53.22610240672074,0
6.562286903687901,53.22705572494394,0
</coordinates></LineString></Placemark>
<Placemark>
<Style><LineStyle><width>3.348397004476317</width></LineStyle></Style>
<LineString><tessellate>1</tessellate><coordinates>
6.562286903687901,53.22705572494394,0
6.5630449226919,53.22705594142534,0
</coordinates></LineString></Placemark>
<Placemark>
<Style><LineStyle><width>3.348397004476317</width></LineStyle></Style>
<LineString><tessellate>1</tessellate><coordinates>
6.5630449226919,53.22705594142534,0
6.565317837887851,53.22801034205555,0
</coordinates></LineString></Placemark>
<Placemark>
<Style><LineStyle><width>3.484872702170407</width></LineStyle></Style>
<LineString><tessellate>1</tessellate><coordinates>
6.56418613785675,53.22355917846544,0
6.56418613785675,53.22355917846544,0
</coordinates></LineString></Placemark>
<Placemark>
<Style><LineStyle><width>3.484872702170407</width></LineStyle></Style>
<LineString><tessellate>1</tessellate><coordinates>
6.56418613785675,53.22355917846544,0
6.5634284994581,53.22324104492204,0
</coordinates></LineString></Placemark>
<Placemark>
<Style><LineStyle><width>3.484872702170407</width></LineStyle></Style>
<LineString><tessellate>1</tessellate><coordinates>
6.5634284994581,53.22324104492204,0
6.563806367144051,53.22419490434874,0
</coordinates></LineString></Placemark>
<Placemark>
<Style><LineStyle><width>3.484872702170407</width></LineStyle></Style>
<LineString><tessellate>1</tessellate><coordinates>
6.563806367144051,53.22419490434874,0
6.5634269770367,53.22451271317004,0
</coordinates></LineString></Placemark>
<Placemark>
<Style><LineStyle><width>3.484872702170407</width></LineStyle></Style>
<LineString><tessellate>1</tessellate><coordinates>
6.5634269770367,53.22451271317004,0
6.562289948530701,53.224512388447934,0
</coordinates></LineString></Placemark>
<Placemark>
<Style><LineStyle><width>3.484872702170407</width></LineStyle></Style>
<LineString><tessellate>1</tessellate><coordinates>
6.562289948530701,53.224512388447934,0
6.5634258352206505,53.225466464356046,0
</coordinates></LineString></Placemark>
<Placemark>
<Style><LineStyle><width>3.484872702170407</width></LineStyle></Style>
<LineString><tessellate>1</tessellate><coordinates>
6.5634258352206505,53.225466464356046,0
6.564563244332001,53.22514887201614,0
</coordinates></LineString></Placemark>
<Placemark>
<Style><LineStyle><width>3.484872702170407</width></LineStyle></Style>
<LineString><tessellate>1</tessellate><coordinates>
6.564563244332001,53.22514887201614,0
6.5645636249373505,53.22483095495414,0
</coordinates></LineString></Placemark>
<Placemark>
<Style><LineStyle><width>3.484872702170407</width></LineStyle></Style>
<LineString><tessellate>1</tessellate><coordinates>
6.5645636249373505,53.22483095495414,0
6.56418613785675,53.22355917846544,0
</coordinates></LineString></Placemark>
<Placemark>
<Style><LineStyle><width>3.484872702170407</width></LineStyle></Style>
<LineString><tessellate>1</tessellate><coordinates>
6.56380408351195,53.22610240672074,0
6.563662665934837,53.225745852721204,0
</coordinates></LineString></Placemark>
<Placemark>
<Style><LineStyle><width>3.484872702170407</width></LineStyle></Style>
<LineString><tessellate>1</tessellate><coordinates>
6.563662665934837,53.225745852721204,0
6.563539289349242,53.22543478519978,0
</coordinates></LineString></Placemark>
</Document></kml>