5.000000000000000000e+00,3.000000000000000000e+01,2.244000000000000128e+01,0.000000000000000000e+00
8.000000000000000000e+00,2.900000000000000000e+01,6.632999999999999829e+01,0.000000000000000000e+00
1.200000000000000000e+01,3.100000000000000000e+01,5.610611111000000051e+01,0.000000000000000000e+00
1.300000000000000000e+01,3.500000000000000000e+01,6.419194444000000033e+01,0.000000000000000000e+00
1.500000000000000000e+01,3.600000000000000000e+01,3.839999999999999858e+01,0.000000000000000000e+00
1.100000000000000000e+01,3.800000000000000000e+01,4.908611110999999738e+01,0.000000000000000000e+00
1.100000000000000000e+01,3.300000000000000000e+01,2.313694444000000061e+01,0.000000000000000000e+00
9.000000000000000000e+00,3.200000000000000000e+01,7.762194443999999294e+01,0.000000000000000000e+00
5.000000000000000000e+00,3.000000000000000000e+01,2.244000000000000128e+01,0.000000000000000000e+00
3.000000000000000000e+00,3.400000000000000000e+01,1.960838889000000052e+02,1.000000000000000000e+00
4.000000000000000000e+00,3.600000000000000000e+01,3.822500000000000142e+01,1.000000000000000000e+00
6.000000000000000000e+00,3.800000000000000000e+01,2.239194443999999962e+01,1.000000000000000000e+00
7.000000000000000000e+00,3.900000000000000000e+01,3.328000000000000114e+01,1.000000000000000000e+00
8.000000000000000000e+00,3.600000000000000000e+01,7.721999999999999886e+01,1.000000000000000000e+00
3.000000000000000000e+00,3.400000000000000000e+01,1.960838889000000052e+02,1.000000000000000000e+00
