7.300000000000000000e+01,3.700000000000000000e+01,2.339388888999999949e+01,0.000000000000000000e+00
7.400000000000000000e+01,3.700000000000000000e+01,2.416805555999999910e+01,0.000000000000000000e+00
7.600000000000000000e+01,3.600000000000000000e+01,2.070611110999999838e+01,0.000000000000000000e+00
7.200000000000000000e+01,4.000000000000000000e+01,3.931194443999999777e+01,0.000000000000000000e+00
7.100000000000000000e+01,4.100000000000000000e+01,4.979500000000000171e+01,0.000000000000000000e+00
7.000000000000000000e+01,4.400000000000000000e+01,2.601000000000000156e+01,0.000000000000000000e+00
6.900000000000000000e+01,4.100000000000000000e+01,3.724805555999999740e+01,0.000000000000000000e+00
7.200000000000000000e+01,3.800000000000000000e+01,4.031805555999999768e+01,0.000000000000000000e+00
7.300000000000000000e+01,3.700000000000000000e+01,2.339388888999999949e+01,0.000000000000000000e+00
7.300000000000000000e+01,4.300000000000000000e+01,3.674000000000000199e+01,1.000000000000000000e+00
7.500000000000000000e+01,4.300000000000000000e+01,4.396611110999999994e+01,1.000000000000000000e+00
7.500000000000000000e+01,4.300000000000000000e+01,5.791888888999999807e+01,1.000000000000000000e+00
7.600000000000000000e+01,4.400000000000000000e+01,4.050194444000000260e+01,1.000000000000000000e+00
7.800000000000000000e+01,4.600000000000000000e+01,4.131611111000000136e+01,1.000000000000000000e+00
7.300000000000000000e+01,4.300000000000000000e+01,3.674000000000000199e+01,1.000000000000000000e+00
