3.500000000000000000e+01,1.300000000000000000e+01,1.928480555999999808e+02,0.000000000000000000e+00
3.600000000000000000e+01,1.200000000000000000e+01,1.281299999999999955e+02,0.000000000000000000e+00
3.700000000000000000e+01,1.200000000000000000e+01,1.139038888999999983e+02,0.000000000000000000e+00
3.800000000000000000e+01,8.000000000000000000e+00,3.877499999999999858e+01,0.000000000000000000e+00
4.000000000000000000e+01,3.000000000000000000e+00,2.627461111000000074e+02,0.000000000000000000e+00
4.200000000000000000e+01,5.000000000000000000e+00,4.416480555999999638e+02,0.000000000000000000e+00
4.200000000000000000e+01,7.000000000000000000e+00,2.992999999999999972e+01,0.000000000000000000e+00
4.100000000000000000e+01,8.000000000000000000e+00,4.535999999999999943e+01,0.000000000000000000e+00
4.000000000000000000e+01,1.300000000000000000e+01,2.283611111000000093e+01,0.000000000000000000e+00
4.000000000000000000e+01,1.300000000000000000e+01,2.428500000000000014e+01,0.000000000000000000e+00
3.900000000000000000e+01,1.400000000000000000e+01,5.773119444000000158e+02,0.000000000000000000e+00
3.500000000000000000e+01,1.300000000000000000e+01,1.928480555999999808e+02,0.000000000000000000e+00
4.200000000000000000e+01,1.100000000000000000e+01,8.100000000000000000e+01,1.000000000000000000e+00
4.400000000000000000e+01,1.100000000000000000e+01,1.017719443999999953e+02,1.000000000000000000e+00
4.800000000000000000e+01,9.000000000000000000e+00,9.614000000000000057e+01,1.000000000000000000e+00
5.000000000000000000e+01,9.000000000000000000e+00,6.807694444000000544e+01,1.000000000000000000e+00
5.000000000000000000e+01,1.000000000000000000e+01,8.540999999999999659e+01,1.000000000000000000e+00
4.700000000000000000e+01,1.100000000000000000e+01,1.835999999999999943e+01,1.000000000000000000e+00
4.600000000000000000e+01,1.400000000000000000e+01,1.189980555999999865e+02,1.000000000000000000e+00
4.500000000000000000e+01,1.500000000000000000e+01,1.046850000000000023e+02,1.000000000000000000e+00
4.400000000000000000e+01,1.300000000000000000e+01,1.205819444000000118e+02,1.000000000000000000e+00
4.200000000000000000e+01,1.100000000000000000e+01,8.100000000000000000e+01,1.000000000000000000e+00
