1.700000000000000000e+01,4.600000000000000000e+01,1.070161111000000034e+02,0.000000000000000000e+00
1.900000000000000000e+01,4.600000000000000000e+01,2.364661111000000062e+02,0.000000000000000000e+00
2.400000000000000000e+01,4.400000000000000000e+01,1.447230555999999808e+02,0.000000000000000000e+00
2.500000000000000000e+01,4.500000000000000000e+01,5.134000000000000341e+01,0.000000000000000000e+00
2.700000000000000000e+01,4.400000000000000000e+01,4.094500000000000028e+01,0.000000000000000000e+00
2.900000000000000000e+01,4.500000000000000000e+01,3.843388888999999864e+01,0.000000000000000000e+00
2.500000000000000000e+01,4.900000000000000000e+01,2.710500000000000043e+01,0.000000000000000000e+00
1.700000000000000000e+01,4.600000000000000000e+01,1.070161111000000034e+02,0.000000000000000000e+00
2.000000000000000000e+01,3.400000000000000000e+01,9.192000000000000171e+01,1.000000000000000000e+00
2.200000000000000000e+01,3.500000000000000000e+01,5.932000000000000028e+01,1.000000000000000000e+00
2.300000000000000000e+01,3.900000000000000000e+01,9.849611111000000108e+01,1.000000000000000000e+00
2.300000000000000000e+01,4.000000000000000000e+01,2.734805555999999882e+01,1.000000000000000000e+00
2.100000000000000000e+01,4.300000000000000000e+01,9.819499999999999318e+01,1.000000000000000000e+00
2.000000000000000000e+01,4.100000000000000000e+01,4.300805556000000252e+01,1.000000000000000000e+00
1.700000000000000000e+01,3.800000000000000000e+01,2.280600000000000023e+02,1.000000000000000000e+00
2.000000000000000000e+01,3.800000000000000000e+01,2.883999999999999986e+01,1.000000000000000000e+00
2.100000000000000000e+01,3.700000000000000000e+01,2.478061111000000096e+02,1.000000000000000000e+00
2.000000000000000000e+01,3.400000000000000000e+01,9.192000000000000171e+01,1.000000000000000000e+00
