34,9 ,239.2230556
21,6 ,150.28
40,13,22.83611111
17,38,228.06
26,26,267.9380556
40,18,217.365
23,19,153
49,16,57.46
35,13,192.8480556
44,13,120.5819444
7 ,39,33.28
37,12,113.9038889
56,49,43.79194444
21,25,113.9880556
24,10,212.7619444
26,32,178.1119444
25,15,236.565
41,32,71.93
19,17,192.4580556
62,60,108.2638889
39,14,577.3119444
14,25,41.445
18,14,232.39
45,15,104.685
8 ,23,75.55805556
53,19,59.58888889
26,20,546.795
29,4 ,166.185
55,37,37.24
80,30,38.42
39,19,80.54805556
87,49,39.55805556
15,18,150.03
2 ,28,36.06388889
50,47,43.48
11,22,65.65
55,47,58.24805556
32,18,394.8119444
26,8 ,101.2219444
59,35,62.12805556
48,63,46.94305556
71,57,44.80805556
25,17,288.1438889
49,20,29.095
32,53,34.17694444
23,14,282.555
31,1 ,40.8
65,57,65.13388889
41,8 ,45.36
79,42,20.77388889
82,33,36.02388889
9 ,32,77.62194444
17,15,23.73805556
53,59,26.22194444
8 ,29,66.33
21,27,131.635
13,13,451.4119444
15,22,73.00805556
48,9 ,96.14
89,49,40.29611111
45,47,36.04
28,29,59.46611111
30,17,192.4230556
9 ,18,154.6138889
43,56,48.90611111
39,54,44.96388889
30,9 ,132.5738889
64,29,159.2469444
13,6 ,38.70888889
25,45,51.34
24,29,71.12
40,3 ,262.7461111
52,62,28.98
13,13,289.2938889
20,12,349.44
45,25,59.04888889
70,29,158.48
85,48,24.405
56,14,122.0580556
26,10,88.56
37,53,35.45
45,58,33.55
26,13,196.3361111
52,17,209.715
34,34,86.65805556
15,36,38.4
54,63,45.14388889
13,28,161.0411111
71,34,61.43194444
42,7 ,29.93
11,38,49.08611111
42,5 ,441.6480556
42,22,88.72194444
47,49,160.92
19,11,154.9519444
21,28,190.72
69,56,30.64
48,61,33.285
31,24,235.9561111
78,46,41.31611111
28,5 ,39.79805556
19,46,236.4661111
4 ,36,38.225
42,25,237.3030556
47,21,103.2111111
31,50,29.39305556
38,30,28.61611111
5 ,22,139.0061111
40,20,13.06
17,18,59.54194444
74,58,292.2
47,27,40.84305556
48,59,40.86388889
47,26,26.13
47,43,30.40805556
21,37,247.8061111
32,32,41.14805556
16,26,95.51305556
36,12,128.13
79,34,38.15194444
52,21,25.10388889
47,22,54.74
35,23,315.02
50,17,49.51388889
7 ,22,108.0238889
35,48,29.535
14,15,51.63888889
50,9 ,68.07694444
66,55,35.95194444
79,43,30.44805556
12,24,201.7080556
62,65,70.33
63,44,108
17,7 ,97.37
54,43,50.37194444
35,7 ,93.09305556
30,21,113.3119444
70,44,26.01
58,20,68.28
64,17,102.48
73,19,58.49305556
21,6 ,56.85611111
14,9 ,126.7488889
36,52,36.72
46,14,118.9980556
65,45,104.5761111
67,19,61.89
3 ,34,196.0838889
51,40,71.08388889
78,42,43.11
6 ,38,22.39194444
5 ,30,22.44
94,37,35.9
72,38,40.31805556
15,27,46.36805556
76,36,20.70611111
43,55,25.26194444
51,13,83.79
30,5 ,24.7
79,40,32.09111111
26,2 ,48.41111111
61,49,70.23611111
42,31,29.11694444
12,31,56.10611111
11,33,23.13694444
14,11,84.88
18,19,100.7569444
29,35,131.25
25,49,27.105
27,44,40.945
23,28,71.33
43,29,54.1
47,55,53.17611111
22,9 ,84.09888889
23,39,98.49611111
30,11,169.995
80,35,77.69611111
82,36,21.7
54,14,154.4
36,30,91.21805556
66,46,120.1719444
20,34,91.92
62,50,95.71805556
33,49,47.38
8 ,36,77.22
31,28,42.4
33,6 ,160.5880556
71,41,49.795
41,56,39.70805556
42,11,81
13,35,64.19194444
24,25,71.55
12,17,54.30611111
5 ,26,64.89805556
29,45,38.43388889
74,37,24.16805556
59,26,251.1919444
82,39,40.89805556
78,39,35.805
53,49,24.285
26,24,87.9
6 ,21,83.80805556
59,36,107.6630556
83,37,36.52388889
57,60,47.74
75,43,57.91888889
19,8 ,55.13
50,10,85.41
13,8 ,68.985
69,41,37.24805556
63,44,108
22,35,59.32
9 ,21,56.29694444
20,38,28.84
24,26,101.6638889
80,56,181.3680556
17,46,107.0161111
67,65,114.9388889
16,26,195.36
38,8 ,38.775
24,44,144.7230556
62,53,77.99611111
82,38,29.42388889
32,6 ,26.54305556
21,43,98.195
57,69,277.24
75,43,43.96611111
44,11,101.7719444
23,40,27.34805556
71,20,63.28
55,23,116.8438889
3 ,26,51.09611111
33,33,35.85305556
12,9 ,53.53388889
20,41,43.00805556
47,48,36.30611111
58,16,22
62,48,157.92
17,25,44.87305556
42,29,21.30694444
36,27,36.15694444
76,44,40.50194444
73,43,36.74
55,15,64.225
16,6 ,38.91805556
10,12,19.36
28,6 ,42.275
1 ,27,33.54
73,37,23.39388889
83,34,38.04194444
72,40,39.31194444
68,56,27.84611111
12,7 ,30.85611111
40,13,24.285
47,11,18.36
40,22,30.56
24,27,34.82194444
82,40,16.335
30,6 ,19.16194444
82,41,17.17194444
51,51,195.84