49.70162536093996,61.99930299891068,454.22388889
19.73491848593284,11.734918485932809,2823.60944434
36.509479412284314,52.50947941228428,430.93388888000004
34.048170103497945,31.95182989650207,1157.3741665799998
5.6351090411204865,21.364890958879453,988.4269444699999
70.43890000665138,25.049899940137607,785.2269444000001
52.48480013026838,17.969600260536915,1592.82249997
7.574310338523673,35.78712422889092,866.9308333199999
71.41548143853137,42.23729487884308,528.1102777799999
65.4977635366915,56.00447292661369,1818.1608333999998
42.996543347094466,25.00000000000001,1120.2230556
29.582792771143804,9.554209253419682,2246.6091667299997
40.867624388819586,10.773534142760095,3335.51999995
63.147606601687336,46.27548493280527,1028.61444439
27.7359656516676,20.001556345628163,3427.4391666
81.87253535183088,38.479705251463926,771.22194444
19.13430783820876,25.0,2274.8113890800005
54.00411247794596,45.3061589236164,1101.7752778699999
20.592374454559682,41.77859003413947,1843.93361112
